1448386266147695,1448386266147699,1448386266147700,1448386266147701
1448386267343907,1448386267343911,1448386267343912,1448386267343913
1448386268610770,1448386268610774,1448386268610775,1448386268610776
1448386269343287,1448386269343293,1448386269343295,1448386269343297
1448386270612541,1448386270612545,1448386270612546,1448386270612547
1448386271210107,1448386271210113,1448386271210115,1448386271210116
1448386272410057,1448386272410072,1448386272410074,1448386272410075
1448386273010173,1448386273010177,1448386273010178,1448386273010179
1448386274077257,1448386274077261,1448386274077262,1448386274077262
1448386274743210,1448386274743213,1448386274743214,1448386274743215
1448386275743752,1448386275743756,1448386275743757,1448386275743758
1448386276543790,1448386276543793,1448386276543795,1448386276543795
1448386277610456,1448386277610461,1448386277610463,1448386277610465
1448386278476514,1448386278476519,1448386278476521,1448386278476522
1448386279676759,1448386279676763,1448386279676764,1448386279676765
1448386280411126,1448386280411132,1448386280411134,1448386280411135
1448386281617059,1448386281617065,1448386281617067,1448386281617068
1448386282343948,1448386282343952,1448386282343953,1448386282343954
1448386283543289,1448386283543294,1448386283543296,1448386283543298
1448386284211696,1448386284211702,1448386284211704,1448386284211705
1448386285345254,1448386285345258,1448386285345259,1448386285345260
1448386286078242,1448386286078248,1448386286078250,1448386286078251
