-0.000767177693184351,0.000767177693184351,0.005370243852290457,0.0
-0.000767177693184351,0.000767177693184351,0.005370243852290457,0.0
-0.000767177693184351,0.000767177693184351,0.005370243852290457,0.0
0.000767177693184351,0.046797839284243636,0.06521010392066717,0.04601942363656919
-0.000767177693184351,0.14959965017094268,0.15727142710278574,0.15339807878856426
-0.002301533079553053,0.2554701718303791,0.2554701718303791,0.28634308040531975
-0.000767177693184351,0.3674781150352895,0.3536689165579716,0.37838192767845813
-0.000767177693184351,0.4871578351720438,0.4534020166719337,0.49598712141635737
-0.000767177693184351,0.6083719106951664,0.557738182945001,0.6187055844472087
-0.000767177693184351,0.7311203416046577,0.6590056384453313,0.7158577010132992
-0.002301533079553053,0.8508000617414115,0.7664105154911365,0.8385761640441505
-0.002301533079553053,0.8738153925369412,0.8753497479233099,0.8436894333371026
-0.000767177693184351,0.8738153925369412,0.9796859141963772,0.8385761640441505
-0.000767177693184351,0.8738153925369412,1.0824877250830767,0.8385761640441505
-0.000767177693184351,0.8738153925369412,1.1837551805834066,0.8385761640441505
-0.000767177693184351,0.8738153925369412,1.2850226360837373,0.8385761640441505
-0.002301533079553053,0.8738153925369412,1.3847557361976985,0.8385761640441505
-0.002301533079553053,0.8738153925369412,1.4430612408797066,0.8385761640441505
-0.000767177693184351,0.8738153925369412,1.4445955962660761,0.8385761640441505
0.002301533079553053,0.8707466817642038,1.4430612408797066,0.8385761640441505
0.08515672394345941,0.8308534417186189,1.413908488538703,0.8999353955595764
0.1818211132846841,0.7802197139684539,1.4123741331523343,1.007314050711571
0.27695114723954006,0.729585986218289,1.4123741331523343,1.0686732822269969
0.3720811811943956,0.6973645231045476,1.4123741331523343,1.0584467436410923
0.4687455705356198,0.6973645231045476,1.4123741331523343,1.0533334743481402
0.5623412491041071,0.6973645231045476,1.4123741331523343,1.0533334743481402
0.6559369276725944,0.6973645231045476,1.4123741331523343,1.0533334743481402
0.7541356724001873,0.6973645231045476,1.4123741331523343,1.0533334743481402
0.8508000617414115,0.6973645231045476,1.4123741331523343,1.0533334743481402
0.9459300956962675,0.6973645231045476,1.4123741331523343,1.0533334743481402
0.996563823446432,0.6973645231045476,1.4123741331523343,1.0533334743481402
0.996563823446432,0.6973645231045476,1.4123741331523343,1.0533334743481402
1.001166889605539,0.6927614569454414,1.4077710669932282,1.0533334743481402
1.0870907912421819,0.652868216899857,1.3371907192202714,1.114692705863566
1.1806864698106692,0.5960970676042172,1.2834882806973686,1.2374111688944174
1.2758165037655251,0.5792191583541619,1.2773508591518938,1.3141102082886995
1.370946537720381,0.5792191583541619,1.2788852145382625,1.3141102082886995
1.467610927061605,0.5792191583541619,1.2788852145382625,1.308996938995747
1.5612066056300922,0.5792191583541619,1.2773508591518938,1.308996938995747
1.6563366395849481,0.5792191583541619,1.2773508591518938,1.308996938995747
1.7499323181534354,0.5792191583541619,1.2773508591518938,1.308996938995747
1.8435279967219227,0.5792191583541619,1.2788852145382625,1.308996938995747
1.9386580306767787,0.5807535137405311,1.2773508591518938,1.308996938995747
1.9969635353587867,0.5792191583541619,1.2788852145382625,1.308996938995747
1.995429179972418,0.5792191583541619,1.2773508591518938,1.308996938995747
2.000032246131524,0.5776848029677932,1.2742821483791564,1.308996938995747
2.0828874369954313,0.5500664060131579,1.2067705113789362,1.375469439804125
2.174948760177549,0.5439289844676831,1.1315870974468725,1.4726215563702154
2.2685444387460363,0.5439289844676831,1.0579380389011783,1.585113480815163
2.360605761928155,0.5439289844676831,1.0364570634920165,1.6055665579869713
2.4526670851102734,0.5439289844676831,1.0364570634920165,1.585113480815163
2.544728408292392,0.5439289844676831,1.0364570634920165,1.585113480815163
2.6367897314745106,0.5439289844676831,1.0364570634920165,1.585113480815163
2.7273166992702595,0.5439289844676831,1.0364570634920165,1.585113480815163
2.819378022452378,0.5439289844676831,1.0364570634920165,1.585113480815163
2.90837063486176,0.5439289844676831,1.0364570634920165,1.585113480815163
2.989691470339298,0.5439289844676831,1.0364570634920165,1.585113480815163
2.9958288918847717,0.5439289844676831,1.0349227081056487,1.585113480815163
2.989691470339298,0.5485320506267892,1.0241822204010687,1.585113480815163
2.905301924089022,0.6145093322406412,0.9536018726281101,1.646472712330588
2.8117062455205346,0.6206467537861151,0.8814871694687847,1.7640779060684877
2.7211792777247856,0.6206467537861151,0.8078381109230897,1.8714565612204823
2.6260492437699297,0.6206467537861151,0.7341890523773946,1.9634954084936207
2.5324535652014424,0.6206467537861151,0.6590056384453313,1.9328157927359082
2.438857886632955,0.6191123983997469,0.602234489149692,1.9328157927359082
2.3437278526781,0.6191123983997469,0.5991657783769542,1.9328157927359082
2.2501321741096127,0.6206467537861151,0.5991657783769542,1.9328157927359082
2.153467784768388,0.6191123983997469,0.5991657783769542,1.9328157927359082
2.058337750813532,0.6206467537861151,0.5976314229905859,1.9328157927359082
1.963207716858677,0.6206467537861151,0.5991657783769542,1.9328157927359082
1.868077682903821,0.6206467537861151,0.5991657783769542,1.9328157927359082
1.7714132935625964,0.6206467537861151,0.5991657783769542,1.9328157927359082
1.677817614994109,0.6206467537861151,0.5976314229905859,1.9328157927359082
1.5811532256528853,0.6206467537861151,0.5976314229905859,1.9328157927359082
1.4844888363116597,0.6206467537861151,0.5976314229905859,1.9328157927359082
1.3893588023568046,0.6206467537861151,0.5991657783769542,1.9328157927359082
1.2942287684019487,0.6206467537861151,0.5991657783769542,1.9328157927359082
1.197564379060724,0.6206467537861151,0.5991657783769542,1.9328157927359082
1.1008999897195002,0.6206467537861151,0.5976314229905859,1.9328157927359082
1.0042356003782755,0.6206467537861151,0.5991657783769542,1.9328157927359082
0.9106399218097883,0.6206467537861151,0.5976314229905859,1.9328157927359082
0.8124411770821958,0.6191123983997469,0.5991657783769542,1.9328157927359082
0.7142424323546024,0.6206467537861151,0.5976314229905859,1.9328157927359082
0.6175780430133782,0.6206467537861151,0.5991657783769542,1.9328157927359082
0.5239823644448909,0.6206467537861151,0.5976314229905859,1.9328157927359082
0.42731797510366665,0.6191123983997469,0.5991657783769542,1.9328157927359082
0.3306535857624424,0.6206467537861151,0.5991657783769542,1.9328157927359082
0.23705790719395514,0.6206467537861151,0.5991657783769542,1.9328157927359082
0.13885916246636176,0.6206467537861151,0.5976314229905859,1.9328157927359082
0.04066041773876927,0.6191123983997469,0.5976314229905859,1.9328157927359082
-0.056003971602455405,0.6191123983997469,0.5976314229905859,1.9328157927359082
-0.15266836094368008,0.6206467537861151,0.5976314229905859,1.9328157927359082
-0.24933275028490431,0.6206467537861151,0.5976314229905859,1.9328157927359082
-0.34599713962612855,0.6206467537861151,0.5976314229905859,1.9328157927359082
-0.4395928181946158,0.6206467537861151,0.5991657783769542,1.9328157927359082
-0.5331884967631031,0.6191123983997469,0.5976314229905859,1.9328157927359082
-0.6298528861043273,0.6206467537861151,0.5991657783769542,1.9328157927359082
-0.7249829200591829,0.6206467537861151,0.5991657783769542,1.9328157927359082
-0.8201129540140388,0.6206467537861151,0.5976314229905859,1.9328157927359082
-0.9152429879688944,0.6191123983997469,0.5976314229905859,1.9328157927359082
-1.0088386665373816,0.6191123983997469,0.5976314229905859,1.9328157927359082
-1.1039687004922372,0.6206467537861151,0.5976314229905859,1.9328157927359082
-1.1990987344470931,0.6206467537861151,0.5976314229905859,1.9328157927359082
-1.289625702242843,0.6191123983997469,0.5976314229905859,1.9328157927359082
-1.3862900915840675,0.6206467537861151,0.5976314229905859,1.9328157927359082
-1.4814201255389232,0.6191123983997469,0.5976314229905859,1.9328157927359082
-1.5734814487210418,0.6206467537861151,0.5991657783769542,1.9328157927359082
-1.6670771272895288,0.6206467537861151,0.5976314229905859,1.9277025234429561
-1.7622071612443846,0.6206467537861151,0.5976314229905859,1.9328157927359082
-1.8527341290401342,0.6206467537861151,0.5976314229905859,1.9328157927359082
-1.944795452222253,0.6191123983997469,0.5976314229905859,1.9328157927359082
-2.0353224200180025,0.6206467537861151,0.5991657783769542,1.9328157927359082
-2.124315032427384,0.6191123983997469,0.5991657783769542,1.9328157927359082
-2.214842000223134,0.6191123983997469,0.5976314229905859,1.9328157927359082
-2.2792849264506168,0.6206467537861151,0.5991657783769542,1.9328157927359082
-2.2792849264506168,0.6206467537861151,0.5976314229905859,1.9328157927359082
-2.2716131495187737,0.612974976854272,0.586890935286005,1.9328157927359082
-2.187223603268498,0.583822224513268,0.5178449428994165,2.0095148321301903
-2.09516228008638,0.5807535137405311,0.4411271735809845,2.0759873329385674
-2.0046353122906297,0.5792191583541619,0.3690124704216582,2.055534255766759
-1.911039633722143,0.5792191583541619,0.34599713962612855,2.055534255766759
-1.8174439551536556,0.5792191583541619,0.34599713962612855,2.055534255766759
-1.7269169873579058,0.5807535137405311,0.34599713962612855,2.055534255766759
-1.63178695340305,0.5807535137405311,0.3444627842397603,2.055534255766759
-1.5366569194481943,0.5792191583541619,0.34599713962612855,2.055534255766759
-1.443061240879707,0.5792191583541619,0.34599713962612855,2.055534255766759
-1.3479312069248512,0.5792191583541619,0.34599713962612855,2.055534255766759
-1.2850226360837371,0.5792191583541619,0.3444627842397603,2.055534255766759
-1.2865569914701056,0.5792191583541619,0.34599713962612855,2.055534255766759
-1.272747792992788,0.576150447581425,0.3337222965351794,2.050420986473807
-1.1883582467425127,0.5377915629222088,0.28462292417138313,1.9992882935442862
-1.0932282127876571,0.47948605824020074,0.2784855026259083,2.0044015628372382
-0.9950294680600638,0.43192104126277275,0.2784855026259083,2.0044015628372382
-0.9029681448779452,0.4303866858764036,0.27695114723954006,2.0044015628372382
-0.806303755536721,0.4303866858764036,0.27695114723954006,2.0044015628372382
-0.711173721581865,0.42885233049003535,0.27695114723954006,2.0044015628372382
-0.6160436876270095,0.42885233049003535,0.27695114723954006,2.0044015628372382
-0.5209136536721535,0.42885233049003535,0.27695114723954006,2.0044015628372382
-0.42731797510366665,0.4303866858764036,0.27695114723954006,2.0044015628372382
-0.3337222965351794,0.4303866858764036,0.27695114723954006,2.0044015628372382
-0.2846229241713827,0.4303866858764036,0.27695114723954006,2.0044015628372382
-0.2846229241713827,0.4303866858764036,0.27695114723954006,2.0044015628372382
-0.27081372569406525,0.42271490894456054,0.27081372569406525,2.0044015628372382
-0.17568369173920928,0.3690124704216582,0.2646763041485909,1.9328157927359082
-0.08208801317072201,0.30303518880780667,0.26160759337585304,1.8714565612204823
0.014576376170502225,0.2876916349441201,0.2600732379894848,1.8919096383922906
0.10970641012535776,0.28922599033048924,0.2600732379894848,1.8919096383922906
0.20790515485295114,0.28922599033048924,0.2600732379894848,1.8919096383922906
0.30303518880780667,0.28922599033048924,0.2600732379894848,1.8919096383922906
0.39816522276266264,0.28922599033048924,0.2600732379894848,1.8919096383922906
0.4948296121038869,0.28922599033048924,0.2600732379894848,1.8919096383922906
0.5899596460587424,0.28922599033048924,0.2600732379894848,1.8919096383922906
0.6866240353999671,0.28922599033048924,0.2600732379894848,1.8919096383922906
0.7142424323546024,0.28922599033048924,0.2600732379894848,1.8919096383922906
0.7157767877409711,0.28922599033048924,0.2600732379894848,1.8919096383922906
0.7311203416046577,0.280019858012277,0.2631419487622222,1.8816830998063865
0.8293190863322506,0.2155769317847942,0.26621065953495915,1.8100973297050564
0.9198460541280005,0.16954627019373492,0.26621065953495915,1.7027186745530618
1.0165104434692251,0.17568369173920972,0.26774501492132785,1.6924921359671576
1.113174832810449,0.17414933635284102,0.26927937030769655,1.6976054052601097
1.208304866765305,0.17414933635284102,0.26774501492132785,1.6976054052601097
1.3034349007201609,0.17568369173920972,0.26927937030769655,1.6976054052601097
1.4000992900613847,0.17568369173920972,0.26927937030769655,1.6976054052601097
1.4952293240162406,0.17414933635284102,0.26927937030769655,1.6976054052601097
1.588825002584728,0.17568369173920972,0.26927937030769655,1.6976054052601097
1.683955036539584,0.17568369173920972,0.26927937030769655,1.6976054052601097
1.7115734334942188,0.17414933635284102,0.26927937030769655,1.6976054052601097
1.7131077888805875,0.17568369173920972,0.26927937030769655,1.7027186745530618
1.7345887642897493,0.16954627019373492,0.2554701718303791,1.6976054052601097
1.8266500874718679,0.15266836094367964,0.19716466714837066,1.6311329044517318
1.9217801214267238,0.14959965017094268,0.19256160098926456,1.5493205957644975
2.0138414446088424,0.14959965017094268,0.19256160098926456,1.5493205957644975
2.110505833950066,0.14959965017094268,0.19256160098926456,1.5493205957644975
2.2041015125185535,0.14959965017094268,0.19256160098926456,1.5493205957644975
2.296162835700671,0.14959965017094268,0.19256160098926456,1.5493205957644975
2.391292869655527,0.14959965017094268,0.19256160098926456,1.5493205957644975
2.4833541928376457,0.14959965017094268,0.19256160098926456,1.5493205957644975
2.576949871406133,0.14959965017094268,0.19256160098926456,1.5493205957644975
2.6705455499746202,0.14959965017094268,0.19256160098926456,1.5493205957644975
2.7119731454065734,0.14959965017094268,0.19256160098926456,1.5493205957644975
2.713507500792942,0.14959965017094268,0.19256160098926456,1.5493205957644975
2.69356088077015,0.1634088486482601,0.17261498096647188,1.5493205957644975
2.6030339129744,0.20176773330747633,0.09436285626167162,1.4572817484913592
2.50176645747407,0.19869902253473892,0.036057351579663166,1.380582709097077
2.4112394896783202,0.20023337792110762,0.03298864080692576,1.4010357862688854
2.313040744950727,0.20023337792110762,0.03145428542055706,1.4061490555618374
2.217910710995872,0.20023337792110762,0.03298864080692576,1.4061490555618374
2.122780677041016,0.19869902253473892,0.03145428542055706,1.4010357862688854
2.0245819323134215,0.19869902253473892,0.03145428542055706,1.4010357862688854
1.9294518983585665,0.20023337792110762,0.03145428542055706,1.4010357862688854
1.831253153630973,0.19869902253473892,0.03298864080692576,1.4010357862688854
1.736123119676118,0.19869902253473892,0.03145428542055706,1.4010357862688854
1.640993085721262,0.19869902253473892,0.03298864080692576,1.4010357862688854
1.5443286963800373,0.19869902253473892,0.03298864080692576,1.4010357862688854
1.4476643070388135,0.19869902253473892,0.03298864080692576,1.4010357862688854
1.3525342730839576,0.20023337792110762,0.03298864080692576,1.4010357862688854
1.255869883742733,0.19869902253473892,0.03145428542055706,1.4010357862688854
1.1576711390151395,0.20023337792110762,0.03145428542055706,1.4010357862688854
1.0610067496739148,0.19869902253473892,0.03145428542055706,1.4010357862688854
0.9658767157190598,0.19869902253473892,0.03145428542055706,1.4010357862688854
0.8692123263778351,0.19869902253473892,0.03145428542055706,1.4010357862688854
0.7710135816502426,0.19869902253473892,0.03298864080692576,1.4010357862688854
0.6743491923090179,0.19869902253473892,0.03145428542055706,1.4010357862688854
0.5776848029677932,0.19869902253473892,0.03298864080692576,1.4010357862688854
0.4825547690129377,0.20023337792110762,0.03298864080692576,1.4010357862688854
0.38435602428534477,0.19869902253473892,0.03145428542055706,1.4010357862688854
0.28922599033048924,0.20023337792110762,0.03298864080692576,1.4010357862688854
0.19256160098926456,0.19869902253473892,0.03145428542055706,1.4010357862688854
0.09589721164803988,0.19869902253473892,0.03298864080692576,1.4010357862688854
-0.002301533079553053,0.19869902253473892,0.03298864080692576,1.4010357862688854
-0.09896592242077729,0.19869902253473892,0.03298864080692576,1.4010357862688854
-0.19563031176200196,0.19869902253473892,0.03298864080692576,1.4010357862688854
-0.2922947011032262,0.20023337792110762,0.03145428542055706,1.4010357862688854
-0.3874247350580817,0.20023337792110762,0.03145428542055706,1.4010357862688854
-0.4825547690129377,0.20023337792110762,0.03298864080692576,1.4010357862688854
-0.5761504475814245,0.20023337792110762,0.03145428542055706,1.4010357862688854
-0.6712804815362805,0.20023337792110762,0.03145428542055706,1.4010357862688854
-0.7694792262638739,0.19869902253473892,0.03145428542055706,1.4010357862688854
-0.8630749048323607,0.19869902253473892,0.03298864080692576,1.4010357862688854
-0.9597392941735854,0.19869902253473892,0.03298864080692576,1.4010357862688854
-1.054869328128441,0.19869902253473892,0.03298864080692576,1.4010357862688854
-1.1515337174696652,0.20023337792110762,0.03145428542055706,1.4010357862688854
-1.243595040651784,0.20023337792110762,0.03298864080692576,1.4010357862688854
-1.3402594299930082,0.19869902253473892,0.03298864080692576,1.4010357862688854
-1.4369238193342326,0.19869902253473892,0.03145428542055706,1.4010357862688854
-1.5320538532890884,0.19869902253473892,0.03145428542055706,1.4010357862688854
-1.6271838872439441,0.20023337792110762,0.03145428542055706,1.4010357862688854
-1.7223139211988,0.20023337792110762,0.03145428542055706,1.4010357862688854
-1.8159095997672872,0.19869902253473892,0.03298864080692576,1.4010357862688854
-1.911039633722143,0.19869902253473892,0.03145428542055706,1.4010357862688854
-2.0031009569042615,0.19869902253473892,0.03145428542055706,1.4010357862688854
-2.0936279247000114,0.20023337792110762,0.03298864080692576,1.4010357862688854
-2.188757958654867,0.20023337792110762,0.03298864080692576,1.4010357862688854
-2.2808192818369855,0.19869902253473892,0.03298864080692576,1.4010357862688854
-2.3698118942463666,0.19869902253473892,0.03298864080692576,1.4010357862688854
-2.4634075728148535,0.19869902253473892,0.03298864080692576,1.4010357862688854
-2.547797119065129,0.19869902253473892,0.03298864080692576,1.4010357862688854
-2.5631406729288155,0.20023337792110762,0.03145428542055706,1.4010357862688854
-2.5631406729288155,0.19869902253473892,0.03145428542055706,1.4010357862688854
-2.540125342133286,0.1833554686710528,0.056003971602455405,1.3908092476829812
-2.4465296635647986,0.12044689782993867,0.14959965017094268,1.303883669702795
-2.3513996296099426,0.11277512089809472,0.22631741948937467,1.1965050145508003
-2.2593383064278245,0.11584383167083256,0.23705790719395514,1.0942396286917573
-2.1657426278593372,0.11430947628446386,0.23859226258032384,0.9970875121256668
-2.0706125939044817,0.11430947628446386,0.23859226258032384,0.9612946270750018
-1.9770169153359942,0.11430947628446386,0.23859226258032384,0.9766344349538585
-1.8818868813811387,0.11430947628446386,0.23859226258032384,0.9766344349538585
-1.785222492039914,0.11430947628446386,0.2401266179666921,0.9766344349538585
-1.6916268134714272,0.11430947628446386,0.23859226258032384,0.9766344349538585
-1.5964967795165714,0.11430947628446386,0.23859226258032384,0.9766344349538585
-1.568878382561936,0.11430947628446386,0.23859226258032384,0.9766344349538585
-1.568878382561936,0.11430947628446386,0.23859226258032384,0.9766344349538585
-1.568878382561936,0.11430947628446386,0.2401266179666921,0.9766344349538585
-1.568878382561936,0.11430947628446386,0.23859226258032384,0.9766344349538585
-1.568878382561936,0.11430947628446386,0.23859226258032384,0.9766344349538585
-1.568878382561936,0.11430947628446386,0.23859226258032384,0.9766344349538585
-1.568878382561936,0.11430947628446386,0.23859226258032384,0.9766344349538585
-1.568878382561936,0.11430947628446386,0.23859226258032384,0.9766344349538585
-1.568878382561936,0.11430947628446386,0.23859226258032384,0.9766344349538585
-1.568878382561936,0.11430947628446386,0.2401266179666921,0.9766344349538585
-1.568878382561936,0.11430947628446386,0.2401266179666921,0.9766344349538585
-1.568878382561936,0.11430947628446386,0.23859226258032384,0.9766344349538585
-1.568878382561936,0.11430947628446386,0.23859226258032384,0.9766344349538585
-1.568878382561936,0.11430947628446386,0.23859226258032384,0.9766344349538585
-1.568878382561936,0.11430947628446386,0.23859226258032384,0.9766344349538585
-1.568878382561936,0.11430947628446386,0.23859226258032384,0.9766344349538585
-1.568878382561936,0.11430947628446386,0.23859226258032384,0.9766344349538585
-1.568878382561936,0.11430947628446386,0.23859226258032384,0.9766344349538585
-1.568878382561936,0.11430947628446386,0.23859226258032384,0.9817477042468106
-1.568878382561936,0.11430947628446386,0.23859226258032384,0.9766344349538585
-1.568878382561936,0.11430947628446386,0.23859226258032384,0.9766344349538585
-1.568878382561936,0.11430947628446386,0.23859226258032384,0.9766344349538585
-1.568878382561936,0.11430947628446386,0.23859226258032384,0.9766344349538585
-1.568878382561936,0.11430947628446386,0.23859226258032384,0.9766344349538585
-1.568878382561936,0.11430947628446386,0.23859226258032384,0.9766344349538585
-1.568878382561936,0.11430947628446386,0.23859226258032384,0.9766344349538585
-1.568878382561936,0.11430947628446386,0.23859226258032384,0.9766344349538585
-1.568878382561936,0.11430947628446386,0.2401266179666921,0.9766344349538585
-1.568878382561936,0.11430947628446386,0.2401266179666921,0.9766344349538585
-1.568878382561936,0.11430947628446386,0.23859226258032384,0.9766344349538585
-1.568878382561936,0.11430947628446386,0.23859226258032384,0.9766344349538585
-1.568878382561936,0.11430947628446386,0.2401266179666921,0.9766344349538585
-1.568878382561936,0.11430947628446386,0.23859226258032384,0.9766344349538585
-1.568878382561936,0.11430947628446386,0.23859226258032384,0.9766344349538585
-1.568878382561936,0.11430947628446386,0.23859226258032384,0.9766344349538585
-1.568878382561936,0.11430947628446386,0.2401266179666921,0.9766344349538585
-1.568878382561936,0.11430947628446386,0.23859226258032384,0.9766344349538585
-1.568878382561936,0.11430947628446386,0.23859226258032384,0.9766344349538585
-1.568878382561936,0.11430947628446386,0.23859226258032384,0.9766344349538585
-1.568878382561936,0.11430947628446386,0.23859226258032384,0.9766344349538585
-1.568878382561936,0.11430947628446386,0.2401266179666921,0.9766344349538585
-1.568878382561936,0.11430947628446386,0.23859226258032384,0.9766344349538585
-1.568878382561936,0.11430947628446386,0.23859226258032384,0.9766344349538585
-1.568878382561936,0.11430947628446386,0.23859226258032384,0.9766344349538585
-1.568878382561936,0.11430947628446386,0.23859226258032384,0.9766344349538585
-1.568878382561936,0.11430947628446386,0.2401266179666921,0.9766344349538585
-1.568878382561936,0.11430947628446386,0.23859226258032384,0.9766344349538585
-1.568878382561936,0.11430947628446386,0.23859226258032384,0.9766344349538585
-1.568878382561936,0.11430947628446386,0.23859226258032384,0.9766344349538585
-1.568878382561936,0.11430947628446386,0.23859226258032384,0.9766344349538585
-1.568878382561936,0.11430947628446386,0.23859226258032384,0.9766344349538585
-1.568878382561936,0.11430947628446386,0.23859226258032384,0.9766344349538585
-1.568878382561936,0.11430947628446386,0.23859226258032384,0.9766344349538585
-1.568878382561936,0.11430947628446386,0.23859226258032384,0.9766344349538585
-1.568878382561936,0.11430947628446386,0.23859226258032384,0.9766344349538585
-1.568878382561936,0.11430947628446386,0.23859226258032384,0.9766344349538585
-1.5704127379483044,0.11430947628446386,0.2401266179666921,0.9766344349538585
-1.568878382561936,0.11430947628446386,0.23859226258032384,0.9766344349538585
-1.568878382561936,0.11430947628446386,0.2401266179666921,0.9766344349538585
-1.568878382561936,0.11430947628446386,0.23859226258032384,0.9766344349538585
-1.568878382561936,0.11430947628446386,0.23859226258032384,0.9766344349538585
-1.568878382561936,0.11430947628446386,0.2401266179666921,0.9766344349538585
-1.568878382561936,0.11430947628446386,0.2401266179666921,0.9766344349538585
-1.568878382561936,0.11430947628446386,0.2401266179666921,0.9766344349538585
-1.568878382561936,0.11430947628446386,0.23859226258032384,0.9766344349538585
-1.568878382561936,0.11430947628446386,0.23859226258032384,0.9766344349538585
-1.568878382561936,0.11430947628446386,0.23859226258032384,0.9766344349538585
-1.568878382561936,0.11430947628446386,0.23859226258032384,0.9766344349538585
-1.568878382561936,0.11430947628446386,0.2401266179666921,0.9766344349538585
-1.568878382561936,0.11430947628446386,0.23859226258032384,0.971521165660906
-1.568878382561936,0.11430947628446386,0.23859226258032384,0.9766344349538585
-1.568878382561936,0.11430947628446386,0.23859226258032384,0.9766344349538585
-1.568878382561936,0.11430947628446386,0.23859226258032384,0.9766344349538585
-1.568878382561936,0.11430947628446386,0.23859226258032384,0.9766344349538585
-1.568878382561936,0.11430947628446386,0.2401266179666921,0.9766344349538585
-1.568878382561936,0.11430947628446386,0.23859226258032384,0.9766344349538585
-1.568878382561936,0.11430947628446386,0.23859226258032384,0.9766344349538585
-1.568878382561936,0.11430947628446386,0.23859226258032384,0.9766344349538585
-1.568878382561936,0.11430947628446386,0.23859226258032384,0.9766344349538585
-1.568878382561936,0.11430947628446386,0.23859226258032384,0.9766344349538585
-1.568878382561936,0.11430947628446386,0.23859226258032384,0.9766344349538585
-1.568878382561936,0.11430947628446386,0.23859226258032384,0.9766344349538585
