1448387260633807,1448387260635088,1448387260636063,1448387260637058
1448387260700521,1448387260701056,1448387260702065,1448387260703036
1448387260767245,1448387260768047,1448387260769053,1448387260770053
1448387260833985,1448387260835089,1448387260836072,1448387260837080
1448387260900725,1448387260902092,1448387260903056,1448387260904081
1448387260967467,1448387260968084,1448387260969081,1448387260970081
1448387261034192,1448387261035060,1448387261036050,1448387261037082
1448387261100942,1448387261102100,1448387261103061,1448387261104083
1448387261167683,1448387261169072,1448387261170113,1448387261171081
1448387261234424,1448387261235079,1448387261236080,1448387261237077
1448387261301165,1448387261302092,1448387261303051,1448387261304099
1448387261367906,1448387261369083,1448387261370072,1448387261371085
1448387261434648,1448387261436068,1448387261437080,1448387261438050
1448387261501389,1448387261502074,1448387261503051,1448387261504082
1448387261568131,1448387261569088,1448387261570109,1448387261571072
1448387261634873,1448387261636087,1448387261637071,1448387261638076
1448387261701618,1448387261703047,1448387261704039,1448387261705071
1448387261768359,1448387261769072,1448387261770062,1448387261771062
1448387261835097,1448387261836074,1448387261837080,1448387261838063
1448387261901834,1448387261903031,1448387261904068,1448387261905067
1448387261968570,1448387261969068,1448387261970070,1448387261971060
1448387262035310,1448387262036057,1448387262037036,1448387262038045
1448387262102037,1448387262103033,1448387262104041,1448387262105064
1448387262168775,1448387262170057,1448387262171051,1448387262172059
1448387262235514,1448387262236048,1448387262237053,1448387262238043
1448387262302251,1448387262303063,1448387262304049,1448387262305066
1448387262368987,1448387262370094,1448387262371055,1448387262372055
1448387262435724,1448387262437051,1448387262438060,1448387262439048
1448387262502462,1448387262503034,1448387262504059,1448387262505034
1448387262569209,1448387262570058,1448387262571050,1448387262572051
1448387262635947,1448387262637026,1448387262638061,1448387262639059
1448387262702684,1448387262704089,1448387262705088,1448387262706050
1448387262769421,1448387262770095,1448387262771071,1448387262772071
1448387262836159,1448387262837050,1448387262838080,1448387262839067
1448387262902901,1448387262904083,1448387262905071,1448387262906051
1448387262969638,1448387262971070,1448387262972071,1448387262973075
1448387263036375,1448387263037097,1448387263038071,1448387263039030
1448387263103107,1448387263104045,1448387263105077,1448387263106057
1448387263169844,1448387263171085,1448387263172080,1448387263173066
1448387263236581,1448387263238062,1448387263239066,1448387263240079
1448387263303323,1448387263304091,1448387263305038,1448387263306101
1448387263370061,1448387263371092,1448387263372071,1448387263373074
1448387263436798,1448387263438069,1448387263439072,1448387263440066
1448387263503534,1448387263504077,1448387263505046,1448387263506076
1448387263570273,1448387263571070,1448387263572062,1448387263573070
1448387263637009,1448387263638082,1448387263639066,1448387263640084
1448387263703746,1448387263705064,1448387263706084,1448387263707087
1448387263770484,1448387263771100,1448387263772075,1448387263773074
1448387263837223,1448387263838060,1448387263839080,1448387263840080
1448387263903960,1448387263905057,1448387263906071,1448387263907075
1448387263970695,1448387263972067,1448387263973061,1448387263974057
1448387264037432,1448387264038060,1448387264039063,1448387264040066
1448387264104166,1448387264105059,1448387264106069,1448387264107046
1448387264170908,1448387264172082,1448387264173071,1448387264174076
1448387264237645,1448387264239058,1448387264240040,1448387264241070
1448387264304384,1448387264305082,1448387264306064,1448387264307050
1448387264371121,1448387264372063,1448387264373071,1448387264374085
1448387264437857,1448387264439065,1448387264440037,1448387264441070
1448387264504594,1448387264506056,1448387264507050,1448387264508087
1448387264571331,1448387264572063,1448387264573083,1448387264574071
1448387264638069,1448387264639079,1448387264640070,1448387264641079
1448387264704810,1448387264706061,1448387264707059,1448387264708075
1448387264771547,1448387264772071,1448387264773071,1448387264774080
1448387264838284,1448387264839077,1448387264840074,1448387264841071
1448387264905021,1448387264906091,1448387264907056,1448387264908070
1448387264971758,1448387264973081,1448387264974070,1448387264975080
1448387265038495,1448387265039047,1448387265040061,1448387265041056
1448387265105227,1448387265106044,1448387265107090,1448387265108056
1448387265171966,1448387265173069,1448387265174062,1448387265175081
1448387265238703,1448387265240034,1448387265241062,1448387265242062
1448387265305441,1448387265306081,1448387265307077,1448387265308032
1448387265372178,1448387265373058,1448387265374065,1448387265375062
1448387265438915,1448387265440063,1448387265441045,1448387265442057
1448387265505652,1448387265507070,1448387265508087,1448387265509062
1448387265572389,1448387265573072,1448387265574062,1448387265575067
1448387265639127,1448387265640074,1448387265641028,1448387265642067
1448387265705863,1448387265707072,1448387265708041,1448387265709063
1448387265772606,1448387265774061,1448387265775084,1448387265776065
1448387265839343,1448387265840063,1448387265841054,1448387265842057
1448387265906079,1448387265907044,1448387265908042,1448387265909071
1448387265972816,1448387265974124,1448387265975057,1448387265976074
1448387266039553,1448387266040031,1448387266041086,1448387266042072
1448387266106289,1448387266107081,1448387266108042,1448387266109092
1448387266173027,1448387266174061,1448387266175066,1448387266176066
1448387266239765,1448387266241067,1448387266242061,1448387266243040
1448387266306501,1448387266307045,1448387266308089,1448387266309060
1448387266373239,1448387266374058,1448387266375060,1448387266376070
1448387266439977,1448387266441071,1448387266442060,1448387266443029
1448387266506715,1448387266508043,1448387266509078,1448387266510070
1448387266573453,1448387266574062,1448387266575055,1448387266576058
1448387266640192,1448387266641064,1448387266642059,1448387266643065
1448387266706930,1448387266708073,1448387266709073,1448387266710070
1448387266773666,1448387266775064,1448387266776061,1448387266777069
1448387266840407,1448387266841063,1448387266842075,1448387266843074
1448387266907143,1448387266908098,1448387266909069,1448387266910096
1448387266973881,1448387266975085,1448387266976078,1448387266977084
1448387267040613,1448387267042036,1448387267043064,1448387267044073
1448387267107335,1448387267108094,1448387267109055,1448387267110087
1448387267174072,1448387267175080,1448387267176082,1448387267177078
1448387267240794,1448387267242074,1448387267243062,1448387267244078
1448387267307531,1448387267308043,1448387267309058,1448387267310056
1448387267374252,1448387267375090,1448387267376116,1448387267377084
1448387267440990,1448387267442048,1448387267443064,1448387267444083
1448387267507721,1448387267509037,1448387267510057,1448387267511069
1448387267574452,1448387267575067,1448387267576064,1448387267577061
1448387267641185,1448387267642034,1448387267643055,1448387267644055
1448387267707934,1448387267709097,1448387267710068,1448387267711087
1448387267774676,1448387267776059,1448387267777069,1448387267778060
1448387267841417,1448387267842062,1448387267843057,1448387267844074
1448387267908157,1448387267909044,1448387267910065,1448387267911048
1448387267974894,1448387267976080,1448387267977063,1448387267978063
1448387268041634,1448387268043052,1448387268044069,1448387268045055
1448387268108379,1448387268109074,1448387268110081,1448387268111045
1448387268175116,1448387268176067,1448387268177057,1448387268178059
1448387268241854,1448387268243065,1448387268244070,1448387268245061
1448387268308595,1448387268310074,1448387268311052,1448387268312071
1448387268375337,1448387268376067,1448387268377064,1448387268378064
1448387268442073,1448387268443064,1448387268444056,1448387268445055
1448387268508814,1448387268510074,1448387268511069,1448387268512071
1448387268575551,1448387268576066,1448387268577064,1448387268578060
1448387268642291,1448387268643062,1448387268644043,1448387268645055
1448387268709028,1448387268710044,1448387268711055,1448387268712064
1448387268775769,1448387268777061,1448387268778097,1448387268779064
1448387268842509,1448387268843075,1448387268844055,1448387268845072
1448387268909247,1448387268910043,1448387268911068,1448387268912041
1448387268975984,1448387268977063,1448387268978066,1448387268979060
1448387269042721,1448387269044079,1448387269045055,1448387269046078
1448387269109452,1448387269110042,1448387269111048,1448387269112048
1448387269176192,1448387269177084,1448387269178116,1448387269179083
1448387269242928,1448387269244067,1448387269245065,1448387269246078
1448387269309666,1448387269311056,1448387269312085,1448387269313059
1448387269376406,1448387269377080,1448387269378078,1448387269379068
1448387269443149,1448387269444066,1448387269445083,1448387269446078
1448387269509886,1448387269511039,1448387269512048,1448387269513064
1448387269576628,1448387269578062,1448387269579078,1448387269580074
1448387269643365,1448387269644080,1448387269645059,1448387269646069
1448387269710103,1448387269711065,1448387269712050,1448387269713091
1448387269776840,1448387269778077,1448387269779064,1448387269780068
1448387269843578,1448387269845075,1448387269846112,1448387269847078
1448387269910315,1448387269911071,1448387269912086,1448387269913068
1448387269977052,1448387269978071,1448387269979072,1448387269980073
1448387270043794,1448387270045081,1448387270046082,1448387270047064
1448387270110525,1448387270111085,1448387270112043,1448387270113090
1448387270177262,1448387270178108,1448387270179072,1448387270180077
1448387270243999,1448387270245071,1448387270246069,1448387270247071
1448387270310736,1448387270312068,1448387270313051,1448387270314064
1448387270377473,1448387270378102,1448387270379060,1448387270380062
1448387270444209,1448387270445061,1448387270446055,1448387270447059
1448387270510946,1448387270512059,1448387270513031,1448387270514068
1448387270577683,1448387270579057,1448387270580059,1448387270581063
1448387270644425,1448387270645079,1448387270646096,1448387270647033
1448387270711162,1448387270712054,1448387270713056,1448387270714094
1448387270777903,1448387270779081,1448387270780072,1448387270781077
1448387270844645,1448387270846111,1448387270847063,1448387270848072
1448387270911382,1448387270912059,1448387270913062,1448387270914093
1448387270978120,1448387270979079,1448387270980078,1448387270981078
1448387271044859,1448387271046070,1448387271047073,1448387271048033
1448387271111596,1448387271113044,1448387271114100,1448387271115066
1448387271178337,1448387271179052,1448387271180042,1448387271181049
1448387271245079,1448387271246071,1448387271247045,1448387271248045
1448387271311820,1448387271313030,1448387271314068,1448387271315027
1448387271378561,1448387271380067,1448387271381068,1448387271382083
1448387271445302,1448387271446049,1448387271447064,1448387271448077
1448387271512055,1448387271513070,1448387271514095,1448387271515045
1448387271578797,1448387271580088,1448387271581073,1448387271582078
1448387271645538,1448387271646103,1448387271647063,1448387271648073
1448387271712278,1448387271713059,1448387271714080,1448387271715069
1448387271779031,1448387271780080,1448387271781072,1448387271782072
1448387271845771,1448387271847075,1448387271848073,1448387271849068
1448387271912512,1448387271913070,1448387271914095,1448387271915077
1448387271979252,1448387271980084,1448387271981077,1448387271982067
1448387272045994,1448387272047080,1448387272048035,1448387272049077
1448387272112715,1448387272114061,1448387272115027,1448387272116064
1448387272179456,1448387272180079,1448387272181071,1448387272182083
1448387272246198,1448387272247083,1448387272248081,1448387272249072
1448387272312940,1448387272314089,1448387272315047,1448387272316047
1448387272379681,1448387272381081,1448387272382077,1448387272383072
1448387272446433,1448387272447074,1448387272448067,1448387272449078
1448387272513174,1448387272514097,1448387272515052,1448387272516073
1448387272579925,1448387272581080,1448387272582081,1448387272583066
1448387272646676,1448387272648063,1448387272649067,1448387272650076
1448387272713418,1448387272714089,1448387272715074,1448387272716084
1448387272780158,1448387272781080,1448387272782085,1448387272783072
1448387272846899,1448387272848084,1448387272849035,1448387272850100
1448387272913640,1448387272915081,1448387272916077,1448387272917056
1448387272980379,1448387272981074,1448387272982067,1448387272983067
1448387273047103,1448387273048001,1448387273049022,1448387273050053
1448387273113858,1448387273115059,1448387273116040,1448387273117076
1448387273180601,1448387273182040,1448387273183049,1448387273184049
1448387273247341,1448387273248048,1448387273249046,1448387273250053
1448387273314083,1448387273315036,1448387273316055,1448387273317028
1448387273380824,1448387273382116,1448387273383077,1448387273384082
1448387273447565,1448387273448080,1448387273449072,1448387273450078
1448387273514306,1448387273515056,1448387273516075,1448387273517058
1448387273581058,1448387273582080,1448387273583068,1448387273584076
1448387273647798,1448387273649080,1448387273650076,1448387273651045
1448387273714535,1448387273715078,1448387273716053,1448387273717051
1448387273781273,1448387273782041,1448387273783074,1448387273784058
1448387273848008,1448387273849056,1448387273850074,1448387273851046
1448387273914745,1448387273916059,1448387273917022,1448387273918060
1448387273981483,1448387273982050,1448387273983054,1448387273984047
1448387274048223,1448387274049053,1448387274050050,1448387274051073
1448387274114964,1448387274116072,1448387274117080,1448387274118036
1448387274181702,1448387274183073,1448387274184064,1448387274185063
1448387274248439,1448387274249060,1448387274250072,1448387274251066
1448387274315176,1448387274316093,1448387274317077,1448387274318053
1448387274381922,1448387274383059,1448387274384067,1448387274385067
1448387274448660,1448387274450064,1448387274451030,1448387274452066
1448387274515398,1448387274516066,1448387274517058,1448387274518039
1448387274582134,1448387274583065,1448387274584063,1448387274585058
1448387274648871,1448387274650027,1448387274651055,1448387274652057
1448387274715609,1448387274717037,1448387274718039,1448387274719070
1448387274782346,1448387274783063,1448387274784066,1448387274785062
1448387274849082,1448387274850059,1448387274851102,1448387274852061
1448387274915818,1448387274917076,1448387274918085,1448387274919088
1448387274982555,1448387274983064,1448387274984066,1448387274985071
1448387275049296,1448387275050071,1448387275051058,1448387275052066
1448387275116032,1448387275117076,1448387275118063,1448387275119080
1448387275182769,1448387275184063,1448387275185068,1448387275186076
1448387275249506,1448387275250061,1448387275251057,1448387275252088
1448387275316248,1448387275317019,1448387275318059,1448387275319031
1448387275382988,1448387275384050,1448387275385044,1448387275386044
1448387275449728,1448387275451083,1448387275452077,1448387275453088
1448387275516469,1448387275517058,1448387275518076,1448387275519083
1448387275583206,1448387275584079,1448387275585080,1448387275586077
1448387275649947,1448387275651065,1448387275652035,1448387275653076
1448387275716689,1448387275718074,1448387275719067,1448387275720087
1448387275783430,1448387275784088,1448387275785076,1448387275786081
1448387275850172,1448387275851078,1448387275852080,1448387275853076
1448387275916912,1448387275918094,1448387275919056,1448387275920043
1448387275983652,1448387275985080,1448387275986078,1448387275987112
1448387276050394,1448387276051074,1448387276052077,1448387276053076
1448387276117135,1448387276118071,1448387276119047,1448387276120037
1448387276183876,1448387276185083,1448387276186077,1448387276187091
1448387276250619,1448387276252054,1448387276253033,1448387276254076
1448387276317368,1448387276318061,1448387276319076,1448387276320058
1448387276384109,1448387276385069,1448387276386076,1448387276387079
1448387276450849,1448387276452083,1448387276453075,1448387276454071
1448387276517590,1448387276519053,1448387276520067,1448387276521066
1448387276584354,1448387276585078,1448387276586077,1448387276587076
1448387276651096,1448387276652087,1448387276653062,1448387276654075
1448387276717836,1448387276719095,1448387276720068,1448387276721066
1448387276784578,1448387276785077,1448387276786067,1448387276787087
1448387276851330,1448387276852082,1448387276853076,1448387276854075
1448387276918081,1448387276919090,1448387276920063,1448387276921076
1448387276984822,1448387276986088,1448387276987063,1448387276988081
1448387277051562,1448387277052059,1448387277053066,1448387277054030
1448387277118304,1448387277119058,1448387277120079,1448387277121054
1448387277185051,1448387277186073,1448387277187064,1448387277188071
1448387277251791,1448387277253082,1448387277254076,1448387277255080
1448387277318542,1448387277319043,1448387277320084,1448387277321055
1448387277385283,1448387277386078,1448387277387066,1448387277388079
1448387277452040,1448387277453101,1448387277454067,1448387277455104
1448387277518783,1448387277520067,1448387277521085,1448387277522055
1448387277585525,1448387277586088,1448387277587111,1448387277588079
1448387277652266,1448387277653068,1448387277654065,1448387277655061
1448387277719007,1448387277720067,1448387277721027,1448387277722053
1448387277785748,1448387277787051,1448387277788043,1448387277789048
1448387277852490,1448387277853044,1448387277854043,1448387277855042
1448387277919230,1448387277920055,1448387277921039,1448387277922052
1448387277985972,1448387277987045,1448387277988047,1448387277989057
1448387278052714,1448387278054044,1448387278055047,1448387278056043
1448387278119455,1448387278120065,1448387278121096,1448387278122055
1448387278186196,1448387278187077,1448387278188076,1448387278189075
1448387278252917,1448387278254048,1448387278255084,1448387278256066
1448387278319659,1448387278321062,1448387278322053,1448387278323074
1448387278386400,1448387278387086,1448387278388075,1448387278389079
1448387278453141,1448387278454102,1448387278455085,1448387278456044
1448387278519882,1448387278521057,1448387278522043,1448387278523085
1448387278586625,1448387278588065,1448387278589079,1448387278590075
1448387278653365,1448387278654082,1448387278655070,1448387278656075
1448387278720106,1448387278721058,1448387278722091,1448387278723083
1448387278786847,1448387278788073,1448387278789081,1448387278790080
1448387278853588,1448387278855024,1448387278856080,1448387278857074
1448387278920329,1448387278921057,1448387278922046,1448387278923092
1448387278987083,1448387278988077,1448387278989075,1448387278990075
1448387279053805,1448387279055043,1448387279056095,1448387279057070
1448387279120557,1448387279121084,1448387279122080,1448387279123091
1448387279187303,1448387279188062,1448387279189048,1448387279190084
1448387279254040,1448387279255073,1448387279256069,1448387279257065
1448387279320775,1448387279322095,1448387279323074,1448387279324084
1448387279387512,1448387279388062,1448387279389065,1448387279390071
1448387279454251,1448387279455070,1448387279456038,1448387279457056
1448387279520989,1448387279522072,1448387279523061,1448387279524038
1448387279587727,1448387279589060,1448387279590062,1448387279591066
1448387279654465,1448387279655088,1448387279656047,1448387279657074
1448387279721213,1448387279722079,1448387279723086,1448387279724082
1448387279787951,1448387279789073,1448387279790062,1448387279791073
1448387279854688,1448387279856077,1448387279857064,1448387279858111
1448387279921425,1448387279922091,1448387279923073,1448387279924059
1448387279988163,1448387279989077,1448387279990079,1448387279991078
1448387280054901,1448387280056068,1448387280057036,1448387280058100
1448387280121638,1448387280123078,1448387280124075,1448387280125074
1448387280188362,1448387280189055,1448387280190053,1448387280191083
1448387280255090,1448387280256055,1448387280257048,1448387280258054
1448387280321815,1448387280323040,1448387280324044,1448387280325020
1448387280388540,1448387280389058,1448387280390054,1448387280391048
1448387280455269,1448387280456065,1448387280457049,1448387280458053
1448387280522005,1448387280523062,1448387280524027,1448387280525084
1448387280588746,1448387280590112,1448387280591074,1448387280592067
1448387280655486,1448387280656047,1448387280657060,1448387280658073
1448387280722223,1448387280723084,1448387280724091,1448387280725063
1448387280788964,1448387280790077,1448387280791065,1448387280792070
1448387280855705,1448387280857075,1448387280858071,1448387280859070
1448387280922447,1448387280923077,1448387280924052,1448387280925077
1448387280989199,1448387280990077,1448387280991075,1448387280992111
1448387281055938,1448387281057084,1448387281058061,1448387281059026
1448387281122675,1448387281124066,1448387281125064,1448387281126038
1448387281189411,1448387281190047,1448387281191044,1448387281192058
1448387281256148,1448387281257076,1448387281258097,1448387281259060
1448387281322884,1448387281324027,1448387281325082,1448387281326059
1448387281389608,1448387281391046,1448387281392033,1448387281393083
1448387281456333,1448387281457049,1448387281458048,1448387281459042
1448387281523056,1448387281524058,1448387281525039,1448387281526057
1448387281589779,1448387281591056,1448387281592034,1448387281593047
1448387281656520,1448387281657075,1448387281658037,1448387281659071
1448387281723261,1448387281724097,1448387281725056,1448387281726042
1448387281790016,1448387281791076,1448387281792056,1448387281793072
1448387281856758,1448387281858059,1448387281859069,1448387281860069
1448387281923498,1448387281924071,1448387281925074,1448387281926054
1448387281990239,1448387281991076,1448387281992056,1448387281993064
1448387282056981,1448387282058074,1448387282059075,1448387282060029
1448387282123723,1448387282125072,1448387282126094,1448387282127076
1448387282190464,1448387282191085,1448387282192063,1448387282193078
1448387282257207,1448387282258038,1448387282259070,1448387282260073
1448387282323947,1448387282325070,1448387282326051,1448387282327058
1448387282390689,1448387282392054,1448387282393072,1448387282394074
1448387282457430,1448387282458076,1448387282459060,1448387282460078
1448387282524171,1448387282525092,1448387282526095,1448387282527082
1448387282590911,1448387282592079,1448387282593064,1448387282594064
1448387282657653,1448387282659055,1448387282660073,1448387282661073
1448387282724405,1448387282725066,1448387282726090,1448387282727062
