0.0,0.85475384459688675,1.4454181002037561,0.84142070878915032
1.0,0.67833943212725334,1.4029594638334948,1.060293757629045
2.0,0.56250056081370436,1.267099387640932,1.3119927051351568
3.0,0.52393538445775023,1.0227156466016809,1.5949416225303619
-2.2831853071795867,0.60703470794642722,0.58619791488008666,1.9483600307632791
-1.2831853071795865,0.55967464844274273,0.33469235287613219,2.0726927270714852
-0.28318530717958645,0.41846462079986613,0.2669422653027369,2.019853454488608
0.71681469282041355,0.2818682083097519,0.24953674021180192,1.8946027117505642
1.7168146928204135,0.16655460089365914,0.26696064923956836,1.7132397298197979
2.7168146928204133,0.14248586833551879,0.18466273176493936,1.5578069920534177
-2.5663706143591729,0.19456424641003922,0.025359068424393959,1.4032328895202932
-1.5663706143591729,0.10705285809392184,0.23511403872960457,0.984283334692164
