1448387183489093,1448387183489096,1448387183489097,1448387183489098
1448387184676136,1448387184676144,1448387184676146,1448387184676148
1448387185609595,1448387185609603,1448387185609606,1448387185609607
1448387186542798,1448387186542804,1448387186542805,1448387186542807
1448387187476221,1448387187476228,1448387187476230,1448387187476231
1448387191409054,1448387191409062,1448387191409065,1448387191409082
1448387192342449,1448387192342456,1448387192342459,1448387192342461
1448387193276007,1448387193276014,1448387193276016,1448387193276018
1448387194142723,1448387194142731,1448387194142735,1448387194142737
1448387195010556,1448387195010563,1448387195010565,1448387195010567
1448387195942662,1448387195942667,1448387195942669,1448387195942670
1448387199810517,1448387199810522,1448387199810523,1448387199810523
