150,81.045,-62.422,-148.5,-98.047,42.549,144.03,113.09,-21.825,-136.67,-125.86,0.66385,126.58
0,126.22,136.39,21.168,-113.52,-143.84,-41.912,98.548,148.4,61.818,-81.603,-150,-80.486
5,35,65,95,125,155,185,215,245,275,305,335,365
