-0.002301533079553053,0.000767177693184351,0.002301533079553053,-0.005113269292952083
-0.000767177693184351,0.000767177693184351,0.002301533079553053,-0.005113269292952083
-0.000767177693184351,0.000767177693184351,0.002301533079553053,-0.005113269292952083
0.000767177693184351,0.016110731556870483,0.023782508488713994,0.0
-0.000767177693184351,0.08975979010256552,0.10510334396625165,0.09715211656609046
-0.000767177693184351,0.19716466714837066,0.20023337792110762,0.20964404101103762
-0.002301533079553053,0.30610389958054407,0.2968977672623323,0.3221359654559848
-0.000767177693184351,0.4196461981718236,0.3966308673762935,0.41928808202207524
-0.000767177693184351,0.5377915629222088,0.49789832287662383,0.5368932757599745
-0.000767177693184351,0.6620743492180687,0.6007001337633233,0.6493852002049216
-0.002301533079553053,0.7863571355139287,0.7035019446500224,0.7618771246498683
-0.000767177693184351,0.8738153925369412,0.8124411770821958,0.8488027026300546
-0.002301533079553053,0.8738153925369412,0.916777343355264,0.8385761640441505
-0.002301533079553053,0.8738153925369412,1.0180447988555938,0.8385761640441505
-0.000767177693184351,0.8738153925369412,1.1223809651286611,0.8385761640441505
-0.000767177693184351,0.8738153925369412,1.2221140652426223,0.8385761640441505
-0.002301533079553053,0.8738153925369412,1.3218471653565844,0.8385761640441505
-0.000767177693184351,0.8738153925369412,1.4200459100841778,0.8385761640441505
-0.002301533079553053,0.8738153925369412,1.4430612408797066,0.8385761640441505
-0.002301533079553053,0.8738153925369412,1.4461299516524448,0.8385761640441505
-0.000767177693184351,0.8738153925369412,1.4476643070388135,0.8385761640441505
0.03912606235240057,0.8569374832868859,1.4231146208569152,0.8488027026300546
0.1327217409208874,0.8093724663094584,1.4123741331523343,0.9459548191961455
0.22631741948937467,0.7587387385592934,1.413908488538703,1.0533334743481402
0.3214474534442302,0.7096393661954967,1.4123741331523343,1.0686732822269969
0.4181118427854549,0.6973645231045476,1.4123741331523343,1.0533334743481402
0.5132418767403109,0.6973645231045476,1.4123741331523343,1.0533334743481402
0.6068375553087977,0.6973645231045476,1.4123741331523343,1.0533334743481402
0.7035019446500224,0.6973645231045476,1.4123741331523343,1.0533334743481402
0.7986319786048779,0.6973645231045476,1.4123741331523343,1.0533334743481402
0.8952963679461021,0.6973645231045476,1.4123741331523343,1.0533334743481402
0.9842889803554842,0.6973645231045476,1.413908488538703,1.0533334743481402
0.9950294680600633,0.6973645231045476,1.413908488538703,1.0533334743481402
0.996563823446432,0.6973645231045476,1.4123741331523343,1.0533334743481402
0.9950294680600633,0.6973645231045476,1.413908488538703,1.0533334743481402
1.0364570634920165,0.6820209692408614,1.3786183146522246,1.0686732822269969
1.1315870974468725,0.631387241490696,1.3049692561065296,1.1658253987930873
1.2251827760153597,0.583822224513268,1.2788852145382625,1.2680907846521303
1.318778454583847,0.5792191583541619,1.2788852145382625,1.3141102082886995
1.413908488538703,0.5792191583541619,1.2788852145382625,1.308996938995747
1.509038522493558,0.5807535137405311,1.2773508591518938,1.308996938995747
1.6026342010620453,0.5792191583541619,1.2773508591518938,1.308996938995747
1.6962298796305326,0.5792191583541619,1.2788852145382625,1.308996938995747
1.78982555819902,0.5792191583541619,1.2773508591518938,1.308996938995747
1.8849555921538759,0.5807535137405311,1.2788852145382625,1.308996938995747
1.9754825599496257,0.5792191583541619,1.2773508591518938,1.308996938995747
1.995429179972418,0.5792191583541619,1.2788852145382625,1.308996938995747
1.995429179972418,0.5792191583541619,1.2773508591518938,1.3141102082886995
1.995429179972418,0.5807535137405311,1.2788852145382625,1.308996938995747
2.03839113079074,0.5638756044904758,1.2405263298790459,1.3345632854605078
2.131986809359227,0.5439289844676831,1.1684116267197204,1.4266021327336467
2.2240481325413457,0.5439289844676831,1.096296923560394,1.5493205957644975
2.3145751003370956,0.5439289844676831,1.0395257742647548,1.6055665579869713
2.408170778905583,0.5439289844676831,1.0364570634920165,1.5953400194010672
2.498697746701332,0.5439289844676831,1.0364570634920165,1.585113480815163
2.5907590698834504,0.5439289844676831,1.0364570634920165,1.585113480815163
2.682820393065569,0.5439289844676831,1.037991418878386,1.585113480815163
2.7733473608613197,0.5439289844676831,1.0364570634920165,1.585113480815163
2.8623399732707,0.5439289844676831,1.0364570634920165,1.585113480815163
2.9528669410664508,0.5439289844676831,1.0364570634920165,1.585113480815163
2.9958288918847717,0.5439289844676831,1.0364570634920165,1.585113480815163
2.9958288918847717,0.5439289844676831,1.0364570634920165,1.585113480815163
2.9958288918847717,0.5439289844676831,1.0364570634920165,1.585113480815163
2.9544012964528186,0.5853565798996367,0.9888920465145894,1.6055665579869713
2.8623399732707,0.6206467537861151,0.9213804095143692,1.712945213138966
2.7702786500885814,0.6206467537861151,0.8461969955823059,1.8152105989980085
2.6782173269064637,0.6206467537861151,0.7740822924229795,1.917475984857052
2.5830872929516078,0.6206467537861151,0.7004332338772845,1.9634954084936207
2.4894916143831205,0.6206467537861151,0.6252498199452212,1.9328157927359082
2.3943615804282654,0.6206467537861151,0.5991657783769542,1.9328157927359082
2.2992315464734094,0.6206467537861151,0.5991657783769542,1.9328157927359082
2.205635867904922,0.6206467537861151,0.5991657783769542,1.9328157927359082
2.110505833950066,0.6206467537861151,0.5991657783769542,1.9328157927359082
2.0138414446088424,0.6206467537861151,0.5991657783769542,1.9328157927359082
1.9202457660403551,0.6206467537861151,0.5991657783769542,1.9328157927359082
1.8251157320854992,0.6206467537861151,0.5991657783769542,1.9328157927359082
1.7299856981306432,0.6206467537861151,0.5991657783769542,1.9328157927359082
1.634855664175788,0.6206467537861151,0.5991657783769542,1.9328157927359082
1.5381912748345625,0.6206467537861151,0.5991657783769542,1.9328157927359082
1.4430612408797066,0.6206467537861151,0.5991657783769542,1.9328157927359082
1.3463968515384828,0.6206467537861151,0.5991657783769542,1.9328157927359082
1.2512668175836268,0.6206467537861151,0.5991657783769542,1.9328157927359082
1.1546024282424021,0.6206467537861151,0.5991657783769542,1.9328157927359082
1.0579380389011783,0.6206467537861151,0.5991657783769542,1.9277025234429561
0.9628080049463223,0.6191123983997469,0.5976314229905859,1.9328157927359082
0.8676779709914664,0.6206467537861151,0.5976314229905859,1.9328157927359082
0.7694792262638734,0.6206467537861151,0.5991657783769542,1.9328157927359082
0.6743491923090179,0.6206467537861151,0.5991657783769542,1.9328157927359082
0.5776848029677932,0.6206467537861151,0.5991657783769542,1.9328157927359082
0.4825547690129377,0.6206467537861151,0.5991657783769542,1.9328157927359082
0.38589037967171347,0.6206467537861151,0.5991657783769542,1.9328157927359082
0.2907603457168575,0.6206467537861151,0.5991657783769542,1.9328157927359082
0.19409595637563282,0.6206467537861151,0.5976314229905859,1.9328157927359082
0.09743156703440858,0.6206467537861151,0.5976314229905859,1.9328157927359082
-0.000767177693184351,0.6206467537861151,0.5991657783769542,1.9328157927359082
-0.09743156703440903,0.6206467537861151,0.5991657783769542,1.9328157927359082
-0.19409595637563326,0.6206467537861151,0.5991657783769542,1.9328157927359082
-0.2892259903304888,0.6206467537861151,0.5976314229905859,1.9328157927359082
-0.38435602428534477,0.6206467537861151,0.5991657783769542,1.9328157927359082
-0.4794860582402003,0.6191123983997469,0.5991657783769542,1.9328157927359082
-0.5746160921950563,0.6206467537861151,0.5991657783769542,1.9328157927359082
-0.6697461261499118,0.6206467537861151,0.5991657783769542,1.9328157927359082
-0.7648761601047678,0.6206467537861151,0.5991657783769542,1.9328157927359082
-0.858471838673255,0.6206467537861151,0.5991657783769542,1.9328157927359082
-0.9551362280144793,0.6206467537861151,0.5991657783769542,1.9328157927359082
-1.0487319065829666,0.6206467537861151,0.5976314229905859,1.9328157927359082
-1.1423275851514536,0.6206467537861151,0.5991657783769542,1.9328157927359082
-1.2374576191063094,0.6206467537861151,0.5991657783769542,1.9328157927359082
-1.3295189422884277,0.6206467537861151,0.5991657783769542,1.9328157927359082
-1.4246489762432835,0.6206467537861151,0.5991657783769542,1.9328157927359082
-1.5197790101981392,0.6206467537861151,0.5991657783769542,1.9328157927359082
-1.614909044152995,0.6206467537861151,0.5976314229905859,1.9328157927359082
-1.7069703673351133,0.6206467537861151,0.5976314229905859,1.9328157927359082
-1.7974973351308632,0.6206467537861151,0.5991657783769542,1.9328157927359082
-1.892627369085719,0.6206467537861151,0.5976314229905859,1.9328157927359082
-1.983154336881469,0.6206467537861151,0.5976314229905859,1.9328157927359082
-2.0706125939044817,0.6206467537861151,0.5976314229905859,1.9328157927359082
-2.1611395617002316,0.6206467537861151,0.5991657783769542,1.9328157927359082
-2.2501321741096127,0.6206467537861151,0.5976314229905859,1.9328157927359082
-2.2792849264506168,0.6206467537861151,0.5991657783769542,1.9328157927359082
-2.2792849264506168,0.6206467537861151,0.5991657783769542,1.9328157927359082
-2.2808192818369855,0.6206467537861151,0.5991657783769542,1.9328157927359082
-2.2363229756322944,0.6007001337633233,0.557738182945001,1.9686086777865728
-2.1427272970638076,0.5792191583541619,0.4825547690129377,2.055534255766759
-2.0537346846544264,0.5792191583541619,0.4073713550808744,2.0759873329385674
-1.9601390060859392,0.5792191583541619,0.35060020578523465,2.055534255766759
-1.8680776829038208,0.5792191583541619,0.34599713962612855,2.055534255766759
-1.7744820043353335,0.5792191583541619,0.34599713962612855,2.055534255766759
-1.6824206811532152,0.5792191583541619,0.34599713962612855,2.055534255766759
-1.5888250025847281,0.5792191583541619,0.3444627842397603,2.055534255766759
-1.4936949686298722,0.5792191583541619,0.34599713962612855,2.055534255766759
-1.3985649346750164,0.5792191583541619,0.34599713962612855,2.055534255766759
-1.3080379668792668,0.5792191583541619,0.34599713962612855,2.055534255766759
-1.2865569914701056,0.5792191583541619,0.3444627842397603,2.055534255766759
-1.2865569914701056,0.5792191583541619,0.34599713962612855,2.055534255766759
-1.2865569914701056,0.5792191583541619,0.34599713962612855,2.055534255766759
-1.2374576191063094,0.5638756044904758,0.30303518880780667,2.0350811785949507
-1.143861940537822,0.507104455194836,0.280019858012277,1.9992882935442862
-1.0471975511965979,0.4472645951264589,0.2784855026259083,2.0044015628372382
-0.9505331618553736,0.42885233049003535,0.2784855026259083,2.0044015628372382
-0.8569374832868863,0.42885233049003535,0.2784855026259083,2.0044015628372382
-0.7633418047183991,0.42885233049003535,0.27695114723954006,2.0044015628372382
-0.6666774153771748,0.4303866858764036,0.27695114723954006,2.0044015628372382
-0.5730817368086876,0.4303866858764036,0.27695114723954006,2.0044015628372382
-0.4794860582402003,0.42885233049003535,0.27695114723954006,2.0044015628372382
-0.38435602428534477,0.4303866858764036,0.27695114723954006,2.0044015628372382
-0.2968977672623323,0.4303866858764036,0.27695114723954006,2.0095148321301903
-0.2861572795577514,0.4303866858764036,0.27695114723954006,2.0044015628372382
-0.2846229241713827,0.42885233049003535,0.27695114723954006,2.0044015628372382
-0.2861572795577514,0.4303866858764036,0.27695114723954006,2.0044015628372382
-0.23245484103484948,0.4027682889217683,0.26774501492132785,1.9890617549583811
-0.13732480707999306,0.3398597180806542,0.2631419487622222,1.8919096383922906
-0.03912606235240057,0.2907603457168575,0.2600732379894848,1.8714565612204823
0.056003971602455405,0.2907603457168575,0.2600732379894848,1.8919096383922906
0.15420271633004878,0.28922599033048924,0.2600732379894848,1.8919096383922906
0.2477983948985356,0.28922599033048924,0.2600732379894848,1.8919096383922906
0.34292842885339114,0.28922599033048924,0.2600732379894848,1.8919096383922906
0.4411271735809845,0.28922599033048924,0.2600732379894848,1.8919096383922906
0.53625720753584,0.28922599033048924,0.2600732379894848,1.8919096383922906
0.6298528861043273,0.28922599033048924,0.2600732379894848,1.8919096383922906
0.7096393661954967,0.28922599033048924,0.2600732379894848,1.8919096383922906
0.7127080769682337,0.28922599033048924,0.2600732379894848,1.8919096383922906
0.7142424323546024,0.28922599033048924,0.2600732379894848,1.8919096383922906
0.7694792262638734,0.2585388826031161,0.2646763041485909,1.8663432919275302
0.8661436156050986,0.18949289021652715,0.26621065953495915,1.7640779060684877
0.964342360332691,0.17108062558010362,0.26621065953495915,1.6924921359671576
1.0579380389011783,0.17568369173920972,0.26927937030769655,1.6976054052601097
1.1530680728560343,0.17568369173920972,0.26927937030769655,1.6976054052601097
1.249732462197258,0.17414933635284102,0.26927937030769655,1.6976054052601097
1.344862496152114,0.17568369173920972,0.26927937030769655,1.6976054052601097
1.43999253010697,0.17568369173920972,0.26927937030769655,1.6976054052601097
1.5351225640618251,0.17568369173920972,0.26927937030769655,1.6976054052601097
1.630252598016681,0.17568369173920972,0.26927937030769655,1.6976054052601097
1.7069703673351135,0.17568369173920972,0.26927937030769655,1.6976054052601097
1.7115734334942188,0.17568369173920972,0.26927937030769655,1.6976054052601097
1.7131077888805875,0.17568369173920972,0.26927937030769655,1.6976054052601097
1.7698789381762285,0.1634088486482601,0.22478306410300597,1.6771523280883014
1.8619402613583462,0.14806529478457398,0.19409595637563282,1.5697736729363059
1.95860465069957,0.14959965017094268,0.19256160098926456,1.5339807878856413
2.0522003292680573,0.14959965017094268,0.19256160098926456,1.5493205957644975
2.144261652450176,0.14959965017094268,0.19256160098926456,1.5493205957644975
2.239391686405032,0.14959965017094268,0.19256160098926456,1.5493205957644975
2.3314530095871504,0.14959965017094268,0.19256160098926456,1.5493205957644975
2.4265830435420064,0.14806529478457398,0.19256160098926456,1.5493205957644975
2.518644366724125,0.14959965017094268,0.19256160098926456,1.5493205957644975
2.6122400452926122,0.14959965017094268,0.19256160098926456,1.5493205957644975
2.6950952361565186,0.14959965017094268,0.19256160098926456,1.5493205957644975
2.7119731454065734,0.14959965017094268,0.19256160098926456,1.5493205957644975
2.7119731454065734,0.14959965017094268,0.19256160098926456,1.5493205957644975
2.713507500792942,0.14806529478457398,0.19256160098926456,1.5493205957644975
2.6536676407245654,0.18949289021652715,0.1327217409208874,1.5033011721279288
2.5570032513833407,0.20176773330747633,0.05753832698882411,1.4163755941477425
2.460338862042117,0.19869902253473892,0.03145428542055706,1.380582709097077
2.365208828087261,0.19869902253473892,0.03298864080692576,1.4010357862688854
2.270078794132404,0.20023337792110762,0.03145428542055706,1.4010357862688854
2.1734144047911803,0.19869902253473892,0.03298864080692576,1.4010357862688854
2.0782843708363243,0.19869902253473892,0.03298864080692576,1.4010357862688854
1.9816199814951005,0.20023337792110762,0.03145428542055706,1.4010357862688854
1.8864899475402446,0.20023337792110762,0.03298864080692576,1.4010357862688854
1.7882912028126512,0.19869902253473892,0.03145428542055706,1.4010357862688854
1.693161168857796,0.19869902253473892,0.03298864080692576,1.4010357862688854
1.5980311349029401,0.20023337792110762,0.03145428542055706,1.4010357862688854
1.5013667455617155,0.19869902253473892,0.03145428542055706,1.4010357862688854
1.4047023562204917,0.19869902253473892,0.03298864080692576,1.4010357862688854
1.3065036114928974,0.19869902253473892,0.03298864080692576,1.4010357862688854
1.2113735775380423,0.19869902253473892,0.03298864080692576,1.4010357862688854
1.1147091881968176,0.19869902253473892,0.03145428542055706,1.4010357862688854
1.0180447988555938,0.19869902253473892,0.03298864080692576,1.4010357862688854
0.9229147649007379,0.20023337792110762,0.03298864080692576,1.4010357862688854
0.8262503755595136,0.19869902253473892,0.03145428542055706,1.4010357862688854
0.7280516308319203,0.20023337792110762,0.03298864080692576,1.4010357862688854
0.631387241490696,0.20023337792110762,0.03145428542055706,1.4010357862688854
0.5347228521494718,0.19869902253473892,0.03298864080692576,1.4010357862688854
0.4426615289673528,0.19869902253473892,0.03145428542055706,1.4010357862688854
0.34292842885339114,0.19869902253473892,0.03298864080692576,1.4061490555618374
0.2477983948985356,0.19869902253473892,0.03298864080692576,1.4010357862688854
0.15266836094367964,0.19869902253473892,0.03145428542055706,1.4010357862688854
0.052935260829718445,0.19869902253473892,0.03145428542055706,1.4010357862688854
-0.04219477312513753,0.20023337792110762,0.03298864080692576,1.4010357862688854
-0.1403935178527309,0.19869902253473892,0.03298864080692576,1.4010357862688854
-0.23552355180758644,0.19869902253473892,0.03298864080692576,1.4010357862688854
-0.3306535857624424,0.19869902253473892,0.03145428542055706,1.4010357862688854
-0.42578361971729795,0.19869902253473892,0.03145428542055706,1.4010357862688854
-0.5224480090585222,0.19869902253473892,0.03145428542055706,1.4061490555618374
-0.6145093322406407,0.20023337792110762,0.03298864080692576,1.4010357862688854
-0.711173721581865,0.20023337792110762,0.03145428542055706,1.4010357862688854
-0.8078381109230897,0.20023337792110762,0.03298864080692576,1.4010357862688854
-0.9045025002643143,0.19869902253473892,0.03298864080692576,1.4010357862688854
-0.9980981788328016,0.19869902253473892,0.03145428542055706,1.4010357862688854
-1.0932282127876571,0.20023337792110762,0.03145428542055706,1.4010357862688854
-1.1883582467425127,0.20023337792110762,0.03145428542055706,1.4010357862688854
-1.281953925311,0.20023337792110762,0.03145428542055706,1.4010357862688854
-1.3770839592658557,0.19869902253473892,0.03298864080692576,1.4010357862688854
-1.4737483486070801,0.19869902253473892,0.03298864080692576,1.4010357862688854
-1.568878382561936,0.20023337792110762,0.03145428542055706,1.4010357862688854
-1.6640084165167917,0.19869902253473892,0.03298864080692576,1.3959225169759333
-1.7606728058580159,0.19869902253473892,0.03298864080692576,1.4010357862688854
-1.8511997736537658,0.19869902253473892,0.03298864080692576,1.4010357862688854
-1.944795452222253,0.20023337792110762,0.03145428542055706,1.4010357862688854
-2.0399254861771086,0.20023337792110762,0.03145428542055706,1.4010357862688854
-2.131986809359227,0.20023337792110762,0.03298864080692576,1.4010357862688854
-2.222513777154977,0.19869902253473892,0.03145428542055706,1.4010357862688854
-2.3145751003370956,0.19869902253473892,0.03145428542055706,1.4010357862688854
-2.406636423519214,0.19869902253473892,0.03145428542055706,1.4010357862688854
-2.4971633913149636,0.20023337792110762,0.03298864080692576,1.4010357862688854
-2.5585376067697094,0.20023337792110762,0.03298864080692576,1.4010357862688854
-2.5631406729288155,0.20023337792110762,0.03298864080692576,1.4010357862688854
-2.564675028315184,0.20023337792110762,0.03145428542055706,1.4010357862688854
-2.4971633913149636,0.15266836094367964,0.10050027780714599,1.3601296319252687
-2.4035677127464767,0.1081720547389895,0.19102724560289586,1.2476377074803215
-2.313040744950727,0.11737818705720082,0.23552355180758644,1.1555988602071832
-2.217910710995871,0.11430947628446386,0.23705790719395514,1.043106935762236
-2.122780677041015,0.11430947628446386,0.23859226258032384,0.9612946270750018
-2.032253709245265,0.11430947628446386,0.23859226258032384,0.971521165660906
-1.935589319904041,0.11430947628446386,0.23859226258032384,0.9766344349538585
-1.8404592859491853,0.11430947628446386,0.2401266179666921,0.9766344349538585
-1.7453292519943295,0.11430947628446386,0.23859226258032384,0.9766344349538585
-1.6501992180394738,0.11430947628446386,0.23859226258032384,0.9766344349538585
-1.5734814487210418,0.11430947628446386,0.23859226258032384,0.9766344349538585
-1.568878382561936,0.11430947628446386,0.23859226258032384,0.9766344349538585
-1.568878382561936,0.11430947628446386,0.23859226258032384,0.9766344349538585
-1.568878382561936,0.11430947628446386,0.2401266179666921,0.9766344349538585
-1.568878382561936,0.11430947628446386,0.23859226258032384,0.9766344349538585
-1.568878382561936,0.11430947628446386,0.23859226258032384,0.9766344349538585
-1.568878382561936,0.11430947628446386,0.23859226258032384,0.9766344349538585
-1.568878382561936,0.11430947628446386,0.23859226258032384,0.971521165660906
-1.568878382561936,0.11430947628446386,0.23859226258032384,0.9766344349538585
-1.568878382561936,0.11430947628446386,0.23859226258032384,0.9766344349538585
-1.568878382561936,0.11430947628446386,0.23859226258032384,0.9766344349538585
-1.568878382561936,0.11430947628446386,0.2401266179666921,0.9766344349538585
-1.568878382561936,0.11430947628446386,0.2401266179666921,0.9766344349538585
-1.568878382561936,0.11430947628446386,0.2401266179666921,0.9766344349538585
-1.568878382561936,0.11430947628446386,0.2401266179666921,0.9766344349538585
-1.568878382561936,0.11430947628446386,0.23859226258032384,0.9766344349538585
-1.568878382561936,0.11430947628446386,0.2401266179666921,0.9766344349538585
-1.568878382561936,0.11430947628446386,0.23859226258032384,0.9766344349538585
-1.568878382561936,0.11430947628446386,0.23859226258032384,0.9766344349538585
-1.568878382561936,0.11430947628446386,0.23859226258032384,0.9766344349538585
-1.568878382561936,0.11430947628446386,0.23859226258032384,0.9766344349538585
-1.568878382561936,0.11430947628446386,0.23859226258032384,0.9766344349538585
-1.568878382561936,0.11430947628446386,0.23859226258032384,0.9766344349538585
-1.568878382561936,0.11430947628446386,0.23859226258032384,0.9766344349538585
-1.568878382561936,0.11430947628446386,0.2401266179666921,0.9766344349538585
-1.568878382561936,0.11430947628446386,0.23859226258032384,0.9766344349538585
-1.568878382561936,0.11430947628446386,0.23859226258032384,0.9766344349538585
-1.568878382561936,0.11430947628446386,0.2401266179666921,0.9766344349538585
-1.568878382561936,0.11430947628446386,0.23859226258032384,0.9766344349538585
-1.568878382561936,0.11430947628446386,0.23859226258032384,0.9766344349538585
-1.568878382561936,0.11430947628446386,0.2401266179666921,0.9766344349538585
-1.568878382561936,0.11430947628446386,0.23859226258032384,0.9766344349538585
-1.568878382561936,0.11430947628446386,0.23859226258032384,0.9766344349538585
-1.568878382561936,0.11430947628446386,0.23859226258032384,0.9766344349538585
-1.568878382561936,0.11430947628446386,0.23859226258032384,0.9766344349538585
-1.568878382561936,0.11430947628446386,0.23859226258032384,0.9766344349538585
-1.568878382561936,0.11430947628446386,0.23859226258032384,0.9766344349538585
