1448387183330398,1448387183331087,1448387183332098,1448387183333096
1448387183397149,1448387183398115,1448387183399097,1448387183400109
1448387183463883,1448387183465110,1448387183466089,1448387183467086
1448387183530626,1448387183532087,1448387183533070,1448387183534092
1448387183597366,1448387183598105,1448387183599105,1448387183600108
1448387183664106,1448387183665115,1448387183666098,1448387183667098
1448387183730848,1448387183732087,1448387183733098,1448387183734090
1448387183797589,1448387183799098,1448387183800107,1448387183801107
1448387183864329,1448387183865110,1448387183866108,1448387183867100
1448387183931078,1448387183932118,1448387183933083,1448387183934116
1448387183997810,1448387183999109,1448387184000097,1448387184001106
1448387184064550,1448387184065112,1448387184066134,1448387184067093
1448387184131292,1448387184132128,1448387184133118,1448387184134094
1448387184198036,1448387184199113,1448387184200108,1448387184201107
1448387184264779,1448387184266111,1448387184267063,1448387184268098
1448387184331522,1448387184332119,1448387184333096,1448387184334117
1448387184398264,1448387184399116,1448387184400098,1448387184401097
1448387184465005,1448387184466109,1448387184467112,1448387184468103
1448387184531747,1448387184533111,1448387184534116,1448387184535126
1448387184598488,1448387184599109,1448387184600106,1448387184601108
1448387184665231,1448387184666110,1448387184667133,1448387184668106
1448387184731972,1448387184733100,1448387184734096,1448387184735128
1448387184798714,1448387184800116,1448387184801107,1448387184802112
1448387184865456,1448387184866109,1448387184867076,1448387184868103
1448387184932177,1448387184933110,1448387184934096,1448387184935124
1448387184998920,1448387185000111,1448387185001097,1448387185002102
1448387185065661,1448387185067092,1448387185068097,1448387185069110
1448387185132403,1448387185133135,1448387185134090,1448387185135086
1448387185199145,1448387185200114,1448387185201106,1448387185202113
1448387185265887,1448387185267110,1448387185268101,1448387185269093
1448387185332629,1448387185334102,1448387185335091,1448387185336090
1448387185399371,1448387185400114,1448387185401107,1448387185402128
1448387185466125,1448387185467078,1448387185468101,1448387185469106
1448387185532866,1448387185534101,1448387185535095,1448387185536128
1448387185599607,1448387185601088,1448387185602111,1448387185603098
1448387185666348,1448387185667105,1448387185668106,1448387185669106
1448387185733106,1448387185734125,1448387185735117,1448387185736064
1448387185799847,1448387185801116,1448387185802112,1448387185803097
1448387185866589,1448387185868098,1448387185869099,1448387185870121
1448387185933332,1448387185934104,1448387185935105,1448387185936074
1448387186000073,1448387186001107,1448387186002112,1448387186003106
1448387186066815,1448387186068108,1448387186069107,1448387186070109
1448387186133555,1448387186135084,1448387186136107,1448387186137087
1448387186200295,1448387186201113,1448387186202112,1448387186203097
1448387186267036,1448387186268109,1448387186269092,1448387186270109
1448387186333775,1448387186335086,1448387186336074,1448387186337107
1448387186400516,1448387186401109,1448387186402106,1448387186403095
1448387186467266,1448387186468113,1448387186469107,1448387186470107
1448387186534014,1448387186535115,1448387186536095,1448387186537080
1448387186600756,1448387186602113,1448387186603092,1448387186604097
1448387186667497,1448387186668091,1448387186669107,1448387186670097
1448387186734237,1448387186735124,1448387186736085,1448387186737125
1448387186800979,1448387186802112,1448387186803096,1448387186804096
1448387186867719,1448387186869068,1448387186870098,1448387186871085
1448387186934460,1448387186935117,1448387186936083,1448387186937118
1448387187001201,1448387187002138,1448387187003111,1448387187004111
1448387187067944,1448387187069104,1448387187070108,1448387187071102
1448387187134695,1448387187136102,1448387187137089,1448387187138105
1448387187201435,1448387187202114,1448387187203106,1448387187204102
1448387187268184,1448387187269076,1448387187270073,1448387187271093
1448387187334925,1448387187336117,1448387187337086,1448387187338084
1448387187401667,1448387187403108,1448387187404102,1448387187405100
1448387187468409,1448387187469109,1448387187470106,1448387187471111
1448387187535149,1448387187536097,1448387187537098,1448387187538070
1448387187601891,1448387187603132,1448387187604106,1448387187605097
1448387187668642,1448387187670158,1448387187671103,1448387187672067
1448387187735385,1448387187736133,1448387187737095,1448387187738123
1448387187802125,1448387187803109,1448387187804096,1448387187805098
1448387187868866,1448387187870093,1448387187871109,1448387187872109
1448387187935608,1448387187937101,1448387187938082,1448387187939114
1448387188002348,1448387188003105,1448387188004112,1448387188005124
1448387188069106,1448387188070122,1448387188071103,1448387188072070
1448387188135847,1448387188137100,1448387188138101,1448387188139082
1448387188202587,1448387188204118,1448387188205101,1448387188206110
1448387188269328,1448387188270109,1448387188271106,1448387188272097
1448387188336079,1448387188337108,1448387188338091,1448387188339089
1448387188402820,1448387188404085,1448387188405110,1448387188406105
1448387188469557,1448387188471089,1448387188472078,1448387188473100
1448387188536295,1448387188537085,1448387188538066,1448387188539115
1448387188603048,1448387188604099,1448387188605096,1448387188606095
1448387188669785,1448387188671091,1448387188672057,1448387188673085
1448387188736521,1448387188738098,1448387188739079,1448387188740107
1448387188803265,1448387188804089,1448387188805087,1448387188806091
1448387188870003,1448387188871104,1448387188872066,1448387188873089
1448387188936744,1448387188938071,1448387188939090,1448387188940081
1448387189003481,1448387189004121,1448387189005082,1448387189006094
1448387189070217,1448387189071118,1448387189072082,1448387189073098
1448387189136954,1448387189138085,1448387189139114,1448387189140078
1448387189203692,1448387189205083,1448387189206106,1448387189207095
1448387189270429,1448387189271057,1448387189272083,1448387189273062
1448387189337168,1448387189338104,1448387189339069,1448387189340101
1448387189403904,1448387189405088,1448387189406087,1448387189407078
1448387189470651,1448387189472094,1448387189473084,1448387189474112
1448387189537364,1448387189538127,1448387189539082,1448387189540103
1448387189604103,1448387189605085,1448387189606096,1448387189607099
1448387189670840,1448387189672100,1448387189673087,1448387189674079
1448387189737578,1448387189739095,1448387189740092,1448387189741115
1448387189804317,1448387189805104,1448387189806105,1448387189807081
1448387189871060,1448387189872076,1448387189873039,1448387189874073
1448387189937803,1448387189939124,1448387189940094,1448387189941098
1448387190004543,1448387190006107,1448387190007096,1448387190008095
1448387190071297,1448387190072072,1448387190073098,1448387190074126
1448387190138048,1448387190139088,1448387190140092,1448387190141115
1448387190204789,1448387190206118,1448387190207109,1448387190208113
1448387190271530,1448387190273091,1448387190274096,1448387190275101
1448387190338268,1448387190339114,1448387190340094,1448387190341107
1448387190405020,1448387190406091,1448387190407113,1448387190408110
1448387190471762,1448387190473102,1448387190474096,1448387190475103
1448387190538505,1448387190540082,1448387190541099,1448387190542134
1448387190605247,1448387190606110,1448387190607091,1448387190608095
1448387190671988,1448387190673071,1448387190674120,1448387190675110
1448387190738737,1448387190740092,1448387190741090,1448387190742090
1448387190805478,1448387190806125,1448387190807087,1448387190808119
1448387190872219,1448387190873102,1448387190874120,1448387190875072
1448387190938960,1448387190940095,1448387190941079,1448387190942115
1448387191005700,1448387191007082,1448387191008095,1448387191009096
1448387191072442,1448387191073099,1448387191074108,1448387191075100
1448387191139182,1448387191140092,1448387191141098,1448387191142096
1448387191205924,1448387191207113,1448387191208104,1448387191209113
1448387191272665,1448387191274103,1448387191275060,1448387191276102
1448387191339406,1448387191340112,1448387191341082,1448387191342112
1448387191406127,1448387191407114,1448387191408096,1448387191409101
1448387191472869,1448387191474124,1448387191475106,1448387191476111
1448387191539609,1448387191541100,1448387191542089,1448387191543115
1448387191606348,1448387191607088,1448387191608099,1448387191609106
1448387191673071,1448387191674096,1448387191675078,1448387191676074
1448387191739813,1448387191741101,1448387191742074,1448387191743131
1448387191806555,1448387191808083,1448387191809114,1448387191810121
1448387191873298,1448387191874110,1448387191875107,1448387191876121
1448387191940040,1448387191941100,1448387191942120,1448387191943094
1448387192006783,1448387192008113,1448387192009107,1448387192010137
1448387192073526,1448387192075102,1448387192076096,1448387192077085
1448387192140268,1448387192141105,1448387192142130,1448387192143101
1448387192207011,1448387192208107,1448387192209114,1448387192210125
1448387192273756,1448387192275108,1448387192276111,1448387192277090
1448387192340512,1448387192342064,1448387192343121,1448387192344080
1448387192407255,1448387192408105,1448387192409101,1448387192410126
1448387192473993,1448387192475109,1448387192476137,1448387192477091
1448387192540730,1448387192542094,1448387192543113,1448387192544067
1448387192607473,1448387192609083,1448387192610084,1448387192611123
1448387192674211,1448387192675079,1448387192676112,1448387192677055
1448387192740953,1448387192742118,1448387192743115,1448387192744109
1448387192807698,1448387192809095,1448387192810084,1448387192811127
1448387192874435,1448387192875102,1448387192876104,1448387192877093
1448387192941178,1448387192942114,1448387192943125,1448387192944090
1448387193007923,1448387193009114,1448387193010106,1448387193011111
1448387193074644,1448387193076065,1448387193077096,1448387193078105
1448387193141388,1448387193142160,1448387193143098,1448387193144130
1448387193208130,1448387193209102,1448387193210120,1448387193211094
1448387193274872,1448387193276108,1448387193277109,1448387193278108
1448387193341617,1448387193343062,1448387193344086,1448387193345077
1448387193408359,1448387193409108,1448387193410099,1448387193411094
1448387193475102,1448387193476095,1448387193477073,1448387193478137
1448387193541846,1448387193543130,1448387193544060,1448387193545115
1448387193608588,1448387193610128,1448387193611101,1448387193612109
1448387193675330,1448387193676134,1448387193677105,1448387193678131
1448387193742051,1448387193743124,1448387193744088,1448387193745096
1448387193808794,1448387193810093,1448387193811104,1448387193812126
1448387193875535,1448387193877051,1448387193878088,1448387193879099
1448387193942277,1448387193943109,1448387193944087,1448387193945098
1448387194009015,1448387194010099,1448387194011095,1448387194012113
1448387194075760,1448387194077128,1448387194078094,1448387194079068
1448387194142503,1448387194144084,1448387194145119,1448387194146075
1448387194209248,1448387194210080,1448387194211115,1448387194212090
1448387194275994,1448387194277088,1448387194278093,1448387194279094
1448387194342737,1448387194344077,1448387194345081,1448387194346087
1448387194409482,1448387194411077,1448387194412093,1448387194413093
1448387194476228,1448387194477092,1448387194478119,1448387194479115
1448387194542968,1448387194544090,1448387194545074,1448387194546104
1448387194609711,1448387194611073,1448387194612082,1448387194613088
1448387194676452,1448387194677046,1448387194678065,1448387194679072
1448387194743190,1448387194744077,1448387194745088,1448387194746104
1448387194809929,1448387194811131,1448387194812128,1448387194813099
1448387194876668,1448387194878110,1448387194879109,1448387194880158
1448387194943408,1448387194944092,1448387194945089,1448387194946137
1448387195010130,1448387195011126,1448387195012098,1448387195013095
1448387195076869,1448387195078095,1448387195079138,1448387195080093
1448387195143608,1448387195145061,1448387195146122,1448387195147085
1448387195210345,1448387195211105,1448387195212094,1448387195213128
1448387195277106,1448387195278074,1448387195279087,1448387195280078
1448387195343828,1448387195345098,1448387195346056,1448387195347072
1448387195410554,1448387195412089,1448387195413114,1448387195414096
1448387195477291,1448387195478098,1448387195479084,1448387195480086
1448387195544030,1448387195545113,1448387195546086,1448387195547130
1448387195610769,1448387195612091,1448387195613090,1448387195614098
1448387195677510,1448387195679084,1448387195680094,1448387195681099
1448387195744250,1448387195745096,1448387195746085,1448387195747087
1448387195810988,1448387195812086,1448387195813091,1448387195814097
1448387195877727,1448387195879087,1448387195880079,1448387195881073
1448387195947220,1448387195948183,1448387195949154,1448387195950181
1448387196011196,1448387196012108,1448387196013168,1448387196014199
1448387196077928,1448387196079197,1448387196080162,1448387196081137
1448387196144661,1448387196146182,1448387196147127,1448387196148116
1448387196211391,1448387196212103,1448387196213137,1448387196214145
1448387196278117,1448387196279115,1448387196280126,1448387196281126
1448387196344850,1448387196346116,1448387196347131,1448387196348150
1448387196411598,1448387196413191,1448387196414133,1448387196415139
1448387196478351,1448387196479197,1448387196480137,1448387196481137
1448387196545116,1448387196546207,1448387196547200,1448387196548214
1448387196611878,1448387196613141,1448387196614137,1448387196615126
1448387196678620,1448387196680087,1448387196681082,1448387196682091
1448387196745347,1448387196746135,1448387196747094,1448387196748121
1448387196812071,1448387196813088,1448387196814112,1448387196815167
1448387196878861,1448387196880155,1448387196881130,1448387196882099
1448387196945584,1448387196947082,1448387196948116,1448387196949191
1448387197012312,1448387197013096,1448387197014143,1448387197015161
1448387197079036,1448387197080079,1448387197081092,1448387197082112
1448387197145760,1448387197147093,1448387197148070,1448387197149097
1448387197212502,1448387197214128,1448387197215127,1448387197216134
1448387197279240,1448387197280085,1448387197281089,1448387197282093
1448387197345979,1448387197347076,1448387197348100,1448387197349115
1448387197412704,1448387197414095,1448387197415130,1448387197416123
1448387197479442,1448387197480086,1448387197481082,1448387197482096
1448387197546165,1448387197547104,1448387197548089,1448387197549061
1448387197612901,1448387197614100,1448387197615089,1448387197616071
1448387197679627,1448387197681098,1448387197682100,1448387197683125
1448387197746360,1448387197747091,1448387197748074,1448387197749083
1448387197813097,1448387197814086,1448387197815095,1448387197816095
1448387197879838,1448387197881092,1448387197882061,1448387197883092
1448387197946594,1448387197948121,1448387197949131,1448387197950094
1448387198013357,1448387198014125,1448387198015140,1448387198016134
1448387198080100,1448387198081123,1448387198082096,1448387198083092
1448387198146854,1448387198148132,1448387198149093,1448387198150163
1448387198213612,1448387198215183,1448387198216195,1448387198217191
1448387198280344,1448387198281127,1448387198282104,1448387198283115
1448387198347107,1448387198348100,1448387198349131,1448387198350134
1448387198413867,1448387198415114,1448387198416124,1448387198417123
1448387198480626,1448387198482070,1448387198483117,1448387198484091
1448387198547382,1448387198548131,1448387198549119,1448387198550111
1448387198614109,1448387198615132,1448387198616140,1448387198617133
1448387198680851,1448387198682099,1448387198683091,1448387198684092
1448387198747608,1448387198749103,1448387198750146,1448387198751084
1448387198814350,1448387198815100,1448387198816122,1448387198817098
1448387198881093,1448387198882092,1448387198883085,1448387198884085
1448387198947878,1448387198949130,1448387198950158,1448387198951087
1448387199014645,1448387199016118,1448387199017120,1448387199018123
1448387199081385,1448387199082072,1448387199083077,1448387199084088
1448387199148135,1448387199149152,1448387199150201,1448387199151133
1448387199214923,1448387199216189,1448387199217193,1448387199218138
1448387199281676,1448387199283184,1448387199284120,1448387199285090
1448387199348416,1448387199349088,1448387199350071,1448387199351101
1448387199415180,1448387199416193,1448387199417196,1448387199418148
1448387199481943,1448387199483144,1448387199484100,1448387199485104
1448387199548687,1448387199550084,1448387199551087,1448387199552077
1448387199615429,1448387199616093,1448387199617091,1448387199618077
1448387199682199,1448387199683135,1448387199684119,1448387199685119
1448387199748959,1448387199750148,1448387199751095,1448387199752106
1448387199815720,1448387199817134,1448387199818142,1448387199819117
1448387199882487,1448387199883122,1448387199884095,1448387199885143
1448387199949227,1448387199950072,1448387199951130,1448387199952074
1448387200016017,1448387200017194,1448387200018125,1448387200019111
1448387200082759,1448387200084117,1448387200085093,1448387200086138
1448387200149515,1448387200150114,1448387200151095,1448387200152076
1448387200216259,1448387200217094,1448387200218077,1448387200219119
1448387200283024,1448387200284107,1448387200285137,1448387200286121
1448387200349778,1448387200351113,1448387200352082,1448387200353119
1448387200416545,1448387200417121,1448387200418140,1448387200419090
1448387200483306,1448387200484098,1448387200485072,1448387200486102
1448387200550062,1448387200551127,1448387200552079,1448387200553158
1448387200616821,1448387200618072,1448387200619096,1448387200620105
1448387200683552,1448387200684117,1448387200685115,1448387200686108
1448387200750293,1448387200751072,1448387200752082,1448387200753133
1448387200817064,1448387200818130,1448387200819109,1448387200820070
1448387200883831,1448387200885103,1448387200886131,1448387200887108
1448387200950586,1448387200952109,1448387200953121,1448387200954075
1448387201017337,1448387201018103,1448387201019124,1448387201020121
1448387201084093,1448387201085104,1448387201086156,1448387201087088
1448387201150864,1448387201152081,1448387201153161,1448387201154056
1448387201217608,1448387201219148,1448387201220108,1448387201221051
1448387201284351,1448387201285082,1448387201286125,1448387201287102
1448387201351097,1448387201352061,1448387201353108,1448387201354083
1448387201417840,1448387201419143,1448387201420085,1448387201421084
1448387201484572,1448387201485110,1448387201486132,1448387201487087
1448387201551312,1448387201552104,1448387201553100,1448387201554061
1448387201618039,1448387201619097,1448387201620085,1448387201621066
1448387201684779,1448387201686073,1448387201687082,1448387201688063
1448387201751516,1448387201752179,1448387201753111,1448387201754068
1448387201818258,1448387201819114,1448387201820106,1448387201821114
1448387201884986,1448387201886162,1448387201887086,1448387201888086
1448387201951714,1448387201953086,1448387201954059,1448387201955081
1448387202018442,1448387202019138,1448387202020092,1448387202021056
1448387202085179,1448387202086124,1448387202087090,1448387202088105
1448387202151909,1448387202153108,1448387202154077,1448387202155099
1448387202218639,1448387202220090,1448387202221041,1448387202222084
1448387202285366,1448387202286101,1448387202287072,1448387202288068
1448387202352092,1448387202353111,1448387202354084,1448387202355067
1448387202418818,1448387202420089,1448387202421068,1448387202422083
1448387202485559,1448387202486136,1448387202487101,1448387202488136
1448387202552288,1448387202553084,1448387202554130,1448387202555090
1448387202619025,1448387202620126,1448387202621091,1448387202622127
1448387202685762,1448387202687105,1448387202688055,1448387202689086
1448387202752498,1448387202753098,1448387202754142,1448387202755090
1448387202819236,1448387202820117,1448387202821105,1448387202822122
1448387202885976,1448387202887126,1448387202888101,1448387202889091
1448387202952717,1448387202954127,1448387202955100,1448387202956122
