-0.002301533079553053,0.008438954625027417,0.005370243852290457,-0.005113269292952083
-0.22148704142117703,0.37386807505768294,0.1903453098756211,0.12215032199830113
-0.6285458426270502,0.9525347543438392,0.533870432490378,0.3584969915391999
-0.8477313509686741,1.254335528356365,0.7188454985137085,0.4857605828304532
-0.8477313509686741,1.254335528356365,0.7188454985137085,0.4857605828304532
-0.8535625846400361,1.212785955678219,0.7023272870273013,0.4857605828304532
-0.8726915649932597,1.0996331316362034,0.6605774536317207,0.4857605828304532
-0.9075712110370513,0.9321208972189501,0.605303199922429,0.4857605828304532
-0.9075712110370513,0.9321208972189501,0.605303199922429,0.4857605828304532
-0.960089746031692,0.9005745193779631,0.5789190783330637,0.4857605828304532
-0.9891525144095524,1.1385735134241817,0.6211786495028412,0.4857605828304532
-0.9980981788328016,1.2957631237883183,0.652868216899857,0.4857605828304532
-0.9980981788328016,1.2957631237883183,0.652868216899857,0.4857605828304532
-1.0000871580373536,1.2715232232459168,0.6430976414378594,0.4869110935048043
-1.003780976560093,1.2015936289760931,0.62139319074855,0.4926067324395574
-1.0057699557646447,1.0901595020149193,0.5991657783769542,0.5062136600022615
-1.0057699557646447,1.0901595020149193,0.5991657783769542,0.5062136600022615
-1.0113390975373902,0.9666037458624683,0.6447647023141225,0.6015482203044459
-1.0216817894010601,1.0415088866887365,0.772928761971031,0.7351179295368793
-1.0272509311738056,1.1116404774240802,0.8461969955823059,0.8027832789934854
-1.0272509311738056,1.1116404774240802,0.8461969955823059,0.8027832789934854
-1.0268531353328951,1.0917234673368879,0.8438539776977766,0.8027832789934854
-1.0261143716283472,1.031231281476836,0.8367374097223227,0.8027832789934854
-1.025716575787437,0.9290521864462118,0.8247160201731449,0.8027832789934854
-1.025716575787437,0.9290521864462118,0.8247160201731449,0.8027832789934854
-1.0499821220829706,0.7856071564561418,0.8908621236599282,0.878346036322667
-1.0950467080603903,0.8517037017011588,1.0528226899171724,1.0186768713625756
-1.1193122543559237,0.9198460541280005,1.143861940537822,1.0942396286917573
-1.1193122543559237,0.9198460541280005,1.143861940537822,1.0942396286917573
-1.1197100501968342,0.9115117252026157,1.1418729613332703,1.0979291406162464
-1.1204488139013822,0.8697625456407581,1.1381791428105312,1.1061637808011375
-1.1208466097422924,0.7694792262638734,1.1361901636059795,1.114692705863566
-1.1208466097422924,0.7694792262638734,1.1361901636059795,1.114692705863566
-1.1109017137195327,0.6118001011937348,1.191085989651613,1.151361180756825
-1.0924326211058364,0.7051090876377363,1.2930353808792179,1.1892087248421783
-1.0824877250830767,0.8339221524913567,1.3479312069248515,1.1760519373789915
-1.0824877250830767,0.8339221524913567,1.3479312069248515,1.1760519373789915
-1.0763629735231899,0.8288811405684795,1.3488822431389367,1.1703489173300514
-1.0746708041905906,0.7669753983568472,1.3409681148984471,1.1825747543916003
-1.102434345105869,0.6651430599908061,1.308037966879266,1.1913917452578482
-1.102434345105869,0.6651430599908061,1.308037966879266,1.1913917452578482
-1.262368456731682,0.5984235483455932,1.2077925787215704,1.1728324715278737
-1.4224427769195584,0.7874351339187071,1.1585231405500942,1.1383652488864926
-1.495229324016241,0.9198460541280005,1.14539629592419,1.1198059751565181
-1.495229324016241,0.9198460541280005,1.14539629592419,1.1198059751565181
-1.4888645905616749,0.8895713528858131,1.1399595423966136,1.1221696484275145
-1.477044371288909,0.8112201828707419,1.1215660100508131,1.1279421678938122
-1.4706796378343427,0.7035019446500224,1.0870907912421819,1.1351457830353744
-1.4706796378343427,0.7035019446500224,1.0870907912421819,1.1351457830353744
-1.4838069005843855,0.6577734309540615,0.9649233304292201,1.0972789219935108
-1.5081861028344652,0.9206790638028245,0.8684799078351875,1.0012630874925208
-1.521313365584508,1.096296923560394,0.8293190863322506,0.9357282806102414
-1.521313365584508,1.096296923560394,0.8293190863322506,0.9357282806102414
-1.5200298941981747,1.0583732993233348,0.8170531424218168,0.937804392926484
-1.5231790050391283,0.9713503027224791,0.7901255803749715,0.9492654394844678
-1.5412599856073002,0.8753497479233099,0.7633418047183991,0.9561813577820497
-1.5412599856073002,0.8753497479233099,0.7633418047183991,0.9561813577820497
-1.5908027594395076,0.8516377801945726,0.7565175516118418,0.9556619212071613
-1.6176027618985722,1.0032053461843964,0.7927478350402274,0.9517336384369715
-1.6256495318575754,1.1039687004922367,0.8170442432413014,0.9408415499031935
-1.6256495318575754,1.1039687004922367,0.8170442432413014,0.9408415499031935
-1.6231715990118367,1.0705385266445928,0.8086905305821833,0.9479222396642609
-1.6241033448024726,0.9876680125695151,0.7931764927866781,0.9700797399337201
-1.640993085721262,0.8814871694687847,0.78482278012756,0.9868609735397627
-1.640993085721262,0.8814871694687847,0.78482278012756,0.9868609735397627
-1.7223593357578126,0.8365947717486396,0.7860466885974088,0.9837464294895264
-1.80826053011495,1.0066337923539872,0.7794283362035956,0.9498051186090447
-1.8481310628810284,1.1484650066969282,0.7495326062410812,0.8948221262666243
-1.8481310628810284,1.1484650066969282,0.7495326062410812,0.8948221262666243
-1.8444827172661182,1.145099141221108,0.7378640150738506,0.8929864028521239
-1.8418572752421203,1.0856178019516145,0.7390100025324506,0.9241427976652731
-1.8527341290401342,0.9612736495599536,0.7418608293092381,0.9561813577820497
-1.8527341290401342,0.9612736495599536,0.7418608293092381,0.9561813577820497
-1.9305390743243505,0.7990222542247643,0.7884029426957536,1.0208429491221986
-2.0163455978076494,0.9279686947675154,0.8748382961278537,1.0822554238229134
-2.056803395427164,1.0395257742647548,0.9213804095143692,1.109579436570614
-2.056803395427164,1.0395257742647548,0.9213804095143692,1.109579436570614
-2.0623003245140255,0.9932041285413628,0.9174024511052653,1.116726649038001
-2.080413064555474,0.8834624601814003,0.9100148140597868,1.1284189897657897
-2.1135745447228036,0.7541356724001873,0.906036855650683,1.1300325137424223
-2.1135745447228036,0.7541356724001873,0.906036855650683,1.1300325137424223
-2.229007103188224,0.6886618505040208,0.9267222393780232,1.1160259404921444
-2.362759988645383,0.8437558022150591,0.9651379520145118,1.107405348722152
-2.44499530817843,0.9996325342191703,0.985823335741852,1.104466167277662
-2.44499530817843,0.9996325342191703,0.985823335741852,1.104466167277662
-2.45886361844183,0.974621811468463,0.9797194481551347,1.1110944793240813
-2.465056726060173,0.8472084795034707,0.9630455567956555,1.123404201696003
-2.466476283587591,0.6789522584681236,0.938258318764424,1.1300325137424223
