-0.002301533079553053,0.003835888465921311,0.006904599238659159,0.0
-0.002301533079553053,0.003835888465921311,0.005370243852290457,0.0
-0.002301533079553053,0.005370243852290457,0.005370243852290457,-0.005113269292952083
-0.002301533079553053,0.006904599238659159,0.005370243852290457,-0.010226538585904166
-0.04219477312513753,0.049866550056980596,0.037591706966031424,0.015339807878856249
-0.09282850087530292,0.12965303014815,0.08975979010256552,0.05113269292952127
-0.14192787323909917,0.18949289021652715,0.1342560963072561,0.07669903939428213
-0.19256160098926456,0.24933275028490431,0.17875240251194668,0.10737865515199507
-0.21864564255753116,0.31224132112601843,0.19102724560289586,0.11760519373789924
-0.21864564255753116,0.3690124704216582,0.19256160098926456,0.11760519373789924
-0.2201799979439003,0.38435602428534477,0.19716466714837066,0.11760519373789924
-0.2616075933758535,0.4181118427854549,0.22478306410300597,0.13805827090970757
-0.31224132112601843,0.49329525671751817,0.2784855026259083,0.1738511559603726
-0.3613406934898151,0.546997695240421,0.3199130980578615,0.20453077171808554
-0.4104400658536118,0.6068375553087977,0.36594375964892123,0.24032365676875056
-0.45953943821740806,0.6666774153771744,0.4135087766263488,0.28634308040531975
-0.5101731659675734,0.7234485646728146,0.45800508283103936,0.29145634969827183
-0.5592725383313697,0.7832884247411913,0.5055700998084669,0.3477023119207452
-0.6099062660815346,0.8431282848095685,0.5331884967631031,0.3579288505066498
-0.6283185307179586,0.8998994341052082,0.53625720753584,0.3579288505066498
-0.6283185307179586,0.9551362280144788,0.53625720753584,0.3579288505066498
-0.6298528861043273,0.9689454264917963,0.539325918308577,0.3579288505066498
-0.6896927461727045,1.0257165757874374,0.6007001337633233,0.3886084662643623
-0.7802197139684539,1.1193122543559246,0.6850896800135984,0.4806473135375011
-0.8446626401959372,1.1960300236743562,0.7203798539000772,0.4857605828304532
-0.8477313509686741,1.255869883742733,0.7203798539000772,0.4704207749515965
-0.8477313509686741,1.2574042391291016,0.7188454985137085,0.4704207749515965
-0.8477313509686741,1.2574042391291016,0.7188454985137085,0.4704207749515965
-0.8477313509686741,1.2574042391291016,0.7188454985137085,0.4704207749515965
-0.8508000617414115,1.2481981068108894,0.7142424323546024,0.4755340442445486
-0.8523344171277802,1.2420606852654155,0.7142424323546024,0.4806473135375011
-0.8692123263778355,1.223648420628991,0.6881583907863353,0.4755340442445486
-0.8707466817642042,1.1868238913561449,0.6743491923090179,0.4755340442445486
-0.8707466817642042,1.149999362083297,0.6743491923090179,0.4755340442445486
-0.8707466817642042,1.1269840312877673,0.6728148369226492,0.4755340442445486
-0.8906933017869965,1.113174832810449,0.6559369276725944,0.4755340442445486
-0.9075712110370513,1.091693857401288,0.631387241490696,0.4755340442445486
-0.9075712110370513,1.070212881992127,0.6206467537861151,0.4806473135375011
-0.9075712110370513,1.0502662619693348,0.6191123983997469,0.4806473135375011
-0.9075712110370513,1.0318539973329113,0.6191123983997469,0.4806473135375011
-0.90910556642342,1.0103730219237494,0.6191123983997469,0.4806473135375011
-0.90910556642342,0.9873576911282207,0.6206467537861151,0.4857605828304532
-0.9075712110370513,0.9674110711054285,0.6206467537861151,0.4755340442445486
-0.90910556642342,0.9582049387872171,0.6191123983997469,0.4806473135375011
-0.9305865418325809,0.9367239633780553,0.6007001337633233,0.4806473135375011
-0.9597392941735854,0.9244491202871066,0.5930283568314798,0.4806473135375011
-0.9796859141963776,0.9612736495599536,0.605303199922429,0.4755340442445486
-0.9873576911282207,1.0287852865601739,0.6221811091724843,0.4806473135375011
-0.9873576911282207,1.0901595020149193,0.623715464558853,0.4806473135375011
-0.9888920465145894,1.143861940537822,0.623715464558853,0.4806473135375011
-0.9888920465145894,1.1576711390151395,0.6267841753315899,0.4806473135375011
-0.9965638234464325,1.2251827760153597,0.6513338615134883,0.4806473135375011
-0.9950294680600638,1.297297479174687,0.6513338615134883,0.4704207749515965
-0.9950294680600638,1.3003661899474235,0.6513338615134883,0.4704207749515965
-0.9934951126736955,1.3003661899474235,0.6513338615134883,0.4704207749515965
-0.9950294680600638,1.3003661899474235,0.6513338615134883,0.4704207749515965
-0.9965638234464325,1.2957631237883183,0.6482651507407513,0.4704207749515965
-0.9980981788328016,1.29269441301558,0.6467307953543822,0.4857605828304532
-1.0011668896055386,1.27121343760642,0.6359903076498021,0.4908738521234053
-1.0011668896055386,1.2374576191063094,0.6329215968770643,0.4908738521234053
-1.0011668896055386,1.2144422883107797,0.6160436876270095,0.49598712141635737
-1.0027012449919068,1.1944956682879875,0.612974976854272,0.4908738521234053
-1.0027012449919068,1.176083403651564,0.6145093322406412,0.4908738521234053
-1.0027012449919068,1.1607398497878778,0.6145093322406412,0.4908738521234053
-1.0027012449919068,1.139258874378716,0.6145093322406412,0.4908738521234053
-1.0027012449919068,1.1208466097422924,0.612974976854272,0.4908738521234053
-1.0027012449919068,1.1193122543559246,0.6145093322406412,0.4908738521234053
-1.0088386665373816,1.0993656343331315,0.6359903076498021,0.5317800064670224
-1.007304311151013,1.0732815927648645,0.6467307953543822,0.5829126993965437
-1.0088386665373816,1.0456631958102287,0.6482651507407513,0.5982525072753999
-1.0088386665373816,1.022647865014699,0.6482651507407513,0.5982525072753999
-1.0103730219237503,1.001166889605539,0.6482651507407513,0.5982525072753999
-1.019579154241962,1.0165104434692251,0.6850896800135984,0.6289321230331129
-1.019579154241962,1.0518006173557044,0.7311203416046577,0.674951546669682
-1.0180447988555934,1.0564036835148096,0.7679448708775047,0.7107444317203471
-1.019579154241962,1.0579380389011783,0.7802197139684539,0.7311975088921558
-1.025716575787437,1.113174832810449,0.835456507877725,0.772103663235773
-1.0241822204010678,1.1147091881968176,0.8385252186504628,0.7976700097005334
-1.0241822204010678,1.1147091881968176,0.8369908632640937,0.7976700097005334
-1.0241822204010678,1.113174832810449,0.8369908632640937,0.7976700097005334
-1.025716575787437,1.1101061220377124,0.8385252186504628,0.7976700097005334
-1.025716575787437,1.107037411264975,0.8400595740368311,0.7976700097005334
-1.025716575787437,1.080953369696708,0.8431282848095685,0.7976700097005334
-1.025716575787437,1.0579380389011783,0.8415939294231998,0.7976700097005334
-1.025716575787437,1.0487319065829661,0.8385252186504628,0.7976700097005334
-1.025716575787437,1.0272509311738052,0.8385252186504628,0.7976700097005334
-1.025716575787437,1.0088386665373816,0.8385252186504628,0.7976700097005334
-1.025716575787437,0.9873576911282207,0.8369908632640937,0.7976700097005334
-1.025716575787437,0.9689454264917963,0.8369908632640937,0.7976700097005334
-1.0272509311738056,0.9551362280144788,0.8385252186504628,0.8027832789934854
-1.0456631958102292,0.9336552526053188,0.8707466817642038,0.8385761640441505
-1.0471975511965979,0.9106399218097883,0.8906933017869969,0.8692557798018634
-1.0487319065829666,0.8860902356278899,0.8952963679461021,0.8743690490948155
-1.0471975511965979,0.8600061940596229,0.8952963679461021,0.8743690490948155
-1.0487319065829666,0.835456507877725,0.8952963679461021,0.8743690490948155
-1.0487319065829666,0.8170442432413014,0.8968307233324708,0.8743690490948155
-1.0778846589239706,0.8339221524913567,0.938258318764424,0.8999353955595764
-1.0932282127876571,0.8630749048323612,0.9904264019009581,0.9561813577820497
-1.0932282127876571,0.8646092602187299,1.0410601296511235,1.002200781418619
-1.0978312789467628,0.8692123263778351,1.0579380389011783,1.012427320004523
-1.1208466097422924,0.9229147649007379,1.128518386674135,1.073786551519949
-1.1193122543559237,0.9244491202871066,1.1361901636059795,1.0942396286917573
-1.1193122543559237,0.9244491202871066,1.1361901636059795,1.073786551519949
-1.1193122543559237,0.9229147649007379,1.1361901636059795,1.0840130901058531
-1.1193122543559237,0.9229147649007379,1.1377245189923473,1.078899820812901
-1.1208466097422924,0.9198460541280005,1.1377245189923473,1.0840130901058531
-1.1208466097422924,0.8983650787188395,1.1423275851514534,1.0942396286917573
-1.1208466097422924,0.8937620125597334,1.1423275851514534,1.0942396286917573
-1.1208466097422924,0.8814871694687847,1.1423275851514534,1.0942396286917573
-1.1208466097422924,0.8554031279005176,1.1407932297650847,1.0942396286917573
-1.1208466097422924,0.8385252186504628,1.1423275851514534,1.0942396286917573
-1.1208466097422924,0.8201129540140388,1.1423275851514534,1.0942396286917573
-1.1208466097422924,0.7986319786048779,1.1407932297650847,1.0942396286917573
-1.1208466097422924,0.7909602016730348,1.143861940537822,1.104466167277662
-1.1162435435831868,0.7725479370366108,1.1745490482651952,1.114692705863566
-1.1162435435831868,0.7479982508547125,1.19142695751525,1.1555988602071832
-1.1162435435831868,0.7219142092864455,1.1960300236743562,1.1351457830353744
-1.1162435435831868,0.6988988784909163,1.1960300236743562,1.1351457830353744
-1.1162435435831868,0.6712804815362805,1.1960300236743562,1.1351457830353744
-1.114709188196818,0.652868216899857,1.1960300236743562,1.1351457830353744
-1.0978312789467628,0.6789522584681236,1.2297858421744667,1.1658253987930873
-1.0932282127876571,0.7157767877409711,1.2758165037655251,1.1760519373789915
-1.088625146628551,0.7372577631501325,1.340259429993008,1.1760519373789915
-1.0870907912421823,0.7633418047183991,1.3479312069248515,1.1658253987930873
-1.0870907912421823,0.7863571355139287,1.3494655623112202,1.1709386680860394
-1.0870907912421823,0.8124411770821958,1.3509999176975889,1.1709386680860394
-1.084022080469445,0.8308534417186189,1.3494655623112202,1.1709386680860394
-1.0794190143103393,0.8308534417186189,1.3509999176975889,1.1658253987930873
-1.0794190143103393,0.8308534417186189,1.3494655623112202,1.1658253987930873
-1.0794190143103393,0.8032350447639836,1.3494655623112202,1.1658253987930873
-1.0778846589239706,0.7863571355139287,1.3479312069248515,1.1709386680860394
-1.0932282127876571,0.7756166478093482,1.3310532976747966,1.1760519373789915
-1.1008999897195002,0.7510669616274499,1.3203128099702157,1.1760519373789915
-1.1008999897195002,0.7326546969910264,1.3203128099702157,1.1760519373789915
-1.1008999897195002,0.7142424323546024,1.3218471653565844,1.1760519373789915
-1.1008999897195002,0.6942958123318101,1.3203128099702157,1.1760519373789915
-1.1039687004922372,0.6850896800135984,1.318778454583847,1.1760519373789915
-1.1515337174696652,0.6467307953543822,1.2880913468564748,1.1709386680860394
-1.2067705113789364,0.6206467537861151,1.2481981068108894,1.1709386680860394
-1.2543355283563644,0.6191123983997469,1.223648420628991,1.1709386680860394
-1.2620073052882075,0.6221811091724843,1.2190453544698858,1.1709386680860394
-1.306503611492898,0.6682117707635431,1.19142695751525,1.1351457830353744
-1.3525342730839574,0.7280516308319203,1.1745490482651952,1.1300325137424223
-1.4000992900613853,0.7863571355139287,1.1745490482651952,1.1300325137424223
-1.4246489762432835,0.8032350447639836,1.1699459821060891,1.1300325137424223
-1.486023191698029,0.8692123263778351,1.1576711390151395,1.114692705863566
-1.4936949686298722,0.9183116987416318,1.1484650066969282,1.114692705863566
-1.4936949686298722,0.9198460541280005,1.14539629592419,1.114692705863566
-1.4936949686298722,0.9198460541280005,1.14539629592419,1.109579436570614
-1.4936949686298722,0.9183116987416318,1.14539629592419,1.109579436570614
-1.4936949686298722,0.9137086325825257,1.1469306513105595,1.109579436570614
-1.4906262578571352,0.9091055664234196,1.14539629592419,1.114692705863566
-1.4814201255389232,0.8738153925369412,1.1361901636059795,1.114692705863566
-1.478351414766186,0.8339221524913567,1.133121452833242,1.114692705863566
-1.4752827039934486,0.8170442432413014,1.113174832810449,1.1249192444494702
-1.4752827039934486,0.7955632678321405,1.1008999897195002,1.1300325137424223
-1.4752827039934486,0.777151003195717,1.102434345105869,1.1300325137424223
-1.4752827039934486,0.7587387385592934,1.1008999897195002,1.1300325137424223
-1.4752827039934486,0.7372577631501325,1.1008999897195002,1.1300325137424223
-1.4752827039934486,0.7249829200591833,1.0978312789467628,1.1300325137424223
-1.4798857701525545,0.6896927461727045,1.0579380389011783,1.104466167277662
-1.4798857701525545,0.6774179030817553,1.011907377310119,1.0840130901058531
-1.4829544809252917,0.6804866138544923,0.975082848037272,1.0942396286917573
-1.5044354563344529,0.7326546969910264,0.9413270295371614,1.0635600129340448
-1.5044354563344529,0.8017006893776149,0.9075712110370517,1.0226538585904277
-1.5044354563344529,0.8692123263778351,0.8845558802415212,0.9970875121256668
-1.5044354563344529,0.9305865418325814,0.8845558802415212,0.9817477042468106
-1.50750416710719,0.9413270295371614,0.8707466817642038,0.9817477042468106
-1.5197790101981392,1.011907377310119,0.8400595740368311,0.971521165660906
-1.5182446548117707,1.0901595020149193,0.832387797104988,0.9408415499031935
-1.5167102994254018,1.0978312789467628,0.8293190863322506,0.9255017420243368
-1.5182446548117707,1.0978312789467628,0.8293190863322506,0.9255017420243368
-1.5182446548117707,1.0947625681740254,0.8277847309458819,0.9255017420243368
-1.5197790101981392,1.0886251466285506,0.8262503755595136,0.9255017420243368
-1.5197790101981392,1.0824877250830767,0.8247160201731449,0.9306150113172889
-1.5197790101981392,1.054869328128441,0.8047694001503527,0.9357282806102414
-1.5197790101981392,1.0134417326964877,0.8032350447639836,0.9357282806102414
-1.521313365584508,0.996563823446432,0.8001663339912466,0.9408415499031935
-1.5366569194481943,0.9842889803554842,0.7832884247411913,0.9459548191961455
-1.538191274834563,0.9582049387872171,0.7786853585820857,0.9459548191961455
-1.538191274834563,0.9367239633780553,0.7786853585820857,0.9459548191961455
-1.538191274834563,0.916777343355264,0.7786853585820857,0.9459548191961455
-1.5366569194481943,0.9029681448779456,0.7786853585820857,0.9459548191961455
-1.5412599856073002,0.8998994341052082,0.777151003195717,0.9459548191961455
-1.5704127379483044,0.8814871694687847,0.7756166478093482,0.9459548191961455
-1.5918937133574653,0.8814871694687847,0.7740822924229795,0.9459548191961455
-1.6133746887666265,0.9229147649007379,0.7894258462866657,0.9459548191961455
-1.614909044152995,0.9812202695827459,0.7940289124457718,0.9459548191961455
-1.6179777549257321,1.0287852865601739,0.8047694001503527,0.9459548191961455
-1.622580821084838,1.1008999897195002,0.8155098878549327,0.9306150113172889
-1.622580821084838,1.107037411264975,0.8124411770821958,0.9306150113172889
-1.6210464656984696,1.107037411264975,0.8124411770821958,0.9306150113172889
-1.622580821084838,1.1039687004922367,0.813975532468564,0.9306150113172889
-1.622580821084838,1.0993656343331315,0.813975532468564,0.9357282806102414
-1.624115176471207,1.0932282127876576,0.8124411770821958,0.9408415499031935
-1.624115176471207,1.0640754604466522,0.8078381109230897,0.9561813577820497
-1.622580821084838,1.0241822204010687,0.806303755536721,0.9561813577820497
-1.624115176471207,1.0149760880828564,0.8032350447639836,0.9561813577820497
-1.6363900195621561,1.001166889605539,0.8017006893776149,0.971521165660906
-1.6363900195621561,0.9766172034236398,0.8001663339912466,0.971521165660906
-1.6379243749485246,0.9566705834008484,0.8001663339912466,0.971521165660906
-1.6379243749485246,0.9367239633780553,0.8017006893776149,0.971521165660906
-1.6363900195621561,0.916777343355264,0.8001663339912466,0.971521165660906
-1.6425274411076305,0.901433789491576,0.8001663339912466,0.971521165660906
-1.6824206811532152,0.8722810371505725,0.8001663339912466,0.971521165660906
-1.7253826319715373,0.8661436156050986,0.7970976232185092,0.971521165660906
-1.763741516630753,0.916777343355264,0.7924945570594035,0.9561813577820497
-1.7959629797444947,0.9812202695827459,0.7924945570594035,0.9357282806102414
-1.8159095997672872,1.0287852865601739,0.7909602016730348,0.9357282806102414
-1.8450623521082912,1.0502662619693348,0.7694792262638734,0.9306150113172889
-1.8450623521082912,1.0748159481512332,0.7648761601047678,0.8948221262666243
-1.8450623521082912,1.0978312789467628,0.7648761601047678,0.8845955876807197
-1.8450623521082912,1.1223809651286611,0.7633418047183991,0.8845955876807197
-1.8450623521082912,1.1407932297650847,0.7572043831729247,0.8794823183877676
-1.8450623521082912,1.149999362083297,0.7433951846956068,0.8794823183877676
-1.8450623521082912,1.1484650066969282,0.7433951846956068,0.8794823183877676
-1.8450623521082912,1.1239153205150298,0.7449295400819755,0.9203884727313847
-1.8450623521082912,1.1101061220377124,0.7449295400819755,0.9203884727313847
-1.8481310628810284,1.0993656343331315,0.7464638954683438,0.9306150113172889
-1.8481310628810284,1.0794190143103393,0.7464638954683438,0.9561813577820497
-1.8481310628810284,1.0579380389011783,0.7464638954683438,0.9561813577820497
-1.8465967074946599,1.0410601296511235,0.7464638954683438,0.9561813577820497
-1.8481310628810284,1.0257165757874374,0.7464638954683438,0.9561813577820497
-1.8481310628810284,1.0042356003782755,0.7464638954683438,0.9561813577820497
-1.8527341290401342,0.9842889803554842,0.7510669616274499,0.9561813577820497
-1.892627369085719,0.9566705834008484,0.7817540693548226,0.9817477042468106
-1.926383187585829,0.9259834756734744,0.7894258462866657,1.007314050711571
-1.926383187585829,0.8937620125597334,0.7894258462866657,1.012427320004523
-1.926383187585829,0.8661436156050986,0.7909602016730348,1.0226538585904277
-1.9294518983585665,0.8446626401959372,0.7940289124457718,1.012427320004523
-1.966276427631414,0.8784184586960473,0.8262503755595136,1.0328803971763318
-2.009238378449736,0.938258318764424,0.8753497479233099,1.073786551519949
-2.0552690400407947,1.0180447988555938,0.9213804095143692,1.109579436570614
-2.0537346846544264,1.0395257742647548,0.916777343355264,1.104466167277662
-2.0537346846544264,1.0395257742647548,0.916777343355264,1.104466167277662
-2.0537346846544264,1.0395257742647548,0.916777343355264,1.104466167277662
-2.056803395427164,1.0349227081056487,0.9183116987416318,1.104466167277662
-2.059872106199901,1.0241822204010687,0.9213804095143692,1.104466167277662
-2.062940816972638,1.0165104434692251,0.9213804095143692,1.104466167277662
-2.073681304677219,0.9812202695827459,0.9213804095143692,1.114692705863566
-2.073681304677219,0.938258318764424,0.9213804095143692,1.114692705863566
-2.076750015449956,0.901433789491576,0.9183116987416318,1.114692705863566
-2.098230990859117,0.8876245910142586,0.9183116987416318,1.114692705863566
-2.107437123177329,0.8692123263778351,0.9183116987416318,1.114692705863566
-2.1089714785636975,0.8477313509686741,0.9183116987416318,1.114692705863566
-2.107437123177329,0.8277847309458819,0.9198460541280005,1.114692705863566
-2.107437123177329,0.806303755536721,0.9183116987416318,1.114692705863566
-2.107437123177329,0.7863571355139287,0.9183116987416318,1.114692705863566
-2.1166432554955406,0.7740822924229795,0.9198460541280005,1.114692705863566
-2.1642082724729685,0.7372577631501325,0.9259834756734744,1.114692705863566
-2.2133076448367652,0.7096393661954967,0.9275178310598431,1.114692705863566
-2.2332542648595575,0.7142424323546024,0.9321208972189501,1.114692705863566
-2.277750571064248,0.7648761601047678,0.959739294173585,1.104466167277662
-2.3237812326553073,0.8262503755595136,0.9674110711054285,1.104466167277662
-2.359071406541786,0.8600061940596229,0.9781515588100085,1.104466167277662
-2.3836210927236845,0.8845558802415212,0.985823335741852,1.104466167277662
-2.406636423519214,0.9075712110370517,0.9873576911282207,1.104466167277662
-2.431186109701112,0.9321208972189501,0.9888920465145894,1.104466167277662
-2.437323531246587,0.9566705834008484,0.9873576911282207,1.104466167277662
-2.437323531246587,0.9812202695827459,0.9873576911282207,1.104466167277662
-2.440392242019324,0.9934951126736946,0.9873576911282207,1.104466167277662
-2.4542014404966417,0.9934951126736946,0.9873576911282207,1.104466167277662
-2.4557357958830104,0.985823335741852,0.985823335741852,1.104466167277662
-2.458804506655748,0.9505331618553736,0.9781515588100085,1.109579436570614
-2.458804506655748,0.9075712110370517,0.9781515588100085,1.109579436570614
-2.458804506655748,0.8738153925369412,0.9781515588100085,1.109579436570614
-2.458804506655748,0.8707466817642038,0.975082848037272,1.114692705863566
-2.4603388620421165,0.8707466817642038,0.9628080049463223,1.114692705863566
-2.4603388620421165,0.8707466817642038,0.9536018726281101,1.114692705863566
-2.4603388620421165,0.8707466817642038,0.9536018726281101,1.114692705863566
-2.4603388620421165,0.8707466817642038,0.9536018726281101,1.114692705863566
-2.4603388620421165,0.8707466817642038,0.9536018726281101,1.114692705863566
-2.4603388620421165,0.8707466817642038,0.9536018726281101,1.114692705863566
-2.4603388620421165,0.8707466817642038,0.9536018726281101,1.114692705863566
-2.458804506655748,0.8707466817642038,0.9536018726281101,1.114692705863566
-2.4603388620421165,0.8707466817642038,0.9536018726281101,1.114692705863566
-2.4603388620421165,0.8707466817642038,0.9536018726281101,1.114692705863566
-2.4603388620421165,0.8707466817642038,0.9536018726281101,1.114692705863566
-2.4603388620421165,0.8707466817642038,0.9536018726281101,1.114692705863566
-2.4603388620421165,0.8692123263778351,0.9536018726281101,1.114692705863566
-2.4603388620421165,0.8692123263778351,0.9536018726281101,1.114692705863566
-2.4603388620421165,0.8692123263778351,0.9536018726281101,1.114692705863566
-2.4603388620421165,0.8661436156050986,0.9536018726281101,1.114692705863566
-2.4603388620421165,0.8661436156050986,0.9536018726281101,1.114692705863566
-2.4603388620421165,0.8646092602187299,0.9536018726281101,1.114692705863566
-2.4603388620421165,0.8646092602187299,0.9536018726281101,1.114692705863566
-2.4603388620421165,0.8646092602187299,0.9536018726281101,1.114692705863566
-2.4603388620421165,0.8646092602187299,0.9536018726281101,1.114692705863566
-2.4603388620421165,0.8646092602187299,0.9536018726281101,1.114692705863566
-2.4603388620421165,0.8646092602187299,0.9536018726281101,1.114692705863566
-2.4603388620421165,0.8630749048323612,0.9536018726281101,1.114692705863566
-2.4603388620421165,0.8615405494459925,0.9536018726281101,1.114692705863566
-2.4603388620421165,0.8615405494459925,0.9536018726281101,1.114692705863566
-2.4603388620421165,0.8630749048323612,0.9536018726281101,1.114692705863566
-2.4603388620421165,0.8615405494459925,0.9536018726281101,1.114692705863566
-2.4603388620421165,0.8615405494459925,0.9536018726281101,1.114692705863566
-2.4603388620421165,0.8554031279005176,0.9536018726281101,1.114692705863566
-2.4603388620421165,0.8554031279005176,0.9536018726281101,1.114692705863566
-2.4603388620421165,0.8554031279005176,0.9536018726281101,1.114692705863566
-2.4603388620421165,0.8554031279005176,0.9536018726281101,1.114692705863566
-2.4603388620421165,0.8554031279005176,0.9536018726281101,1.114692705863566
-2.4603388620421165,0.8554031279005176,0.9536018726281101,1.114692705863566
-2.4603388620421165,0.8538687725141489,0.9536018726281101,1.114692705863566
-2.4603388620421165,0.8538687725141489,0.9536018726281101,1.114692705863566
-2.4603388620421165,0.8523344171277802,0.9536018726281101,1.114692705863566
-2.4603388620421165,0.8492657063550428,0.9536018726281101,1.114692705863566
-2.4603388620421165,0.8461969955823059,0.9536018726281101,1.114692705863566
-2.4603388620421165,0.8461969955823059,0.9536018726281101,1.114692705863566
-2.4603388620421165,0.8461969955823059,0.9536018726281101,1.114692705863566
-2.4603388620421165,0.8446626401959372,0.9536018726281101,1.114692705863566
-2.4603388620421165,0.8446626401959372,0.9536018726281101,1.114692705863566
-2.4603388620421165,0.8446626401959372,0.9536018726281101,1.114692705863566
-2.4603388620421165,0.8446626401959372,0.9536018726281101,1.114692705863566
-2.4603388620421165,0.8446626401959372,0.9536018726281101,1.114692705863566
-2.4603388620421165,0.8431282848095685,0.9536018726281101,1.114692705863566
-2.4603388620421165,0.8446626401959372,0.9536018726281101,1.114692705863566
-2.4603388620421165,0.8431282848095685,0.9536018726281101,1.114692705863566
-2.4603388620421165,0.8415939294231998,0.9536018726281101,1.114692705863566
-2.4603388620421165,0.8400595740368311,0.9536018726281101,1.114692705863566
-2.4603388620421165,0.8385252186504628,0.9536018726281101,1.114692705863566
-2.4603388620421165,0.8385252186504628,0.9536018726281101,1.114692705863566
-2.4603388620421165,0.8385252186504628,0.9536018726281101,1.114692705863566
-2.4603388620421165,0.8385252186504628,0.9536018726281101,1.114692705863566
-2.4603388620421165,0.8369908632640937,0.9536018726281101,1.114692705863566
-2.4603388620421165,0.835456507877725,0.9536018726281101,1.114692705863566
-2.4603388620421165,0.835456507877725,0.9536018726281101,1.114692705863566
-2.4603388620421165,0.835456507877725,0.9536018726281101,1.114692705863566
-2.4603388620421165,0.832387797104988,0.9536018726281101,1.114692705863566
-2.4603388620421165,0.8262503755595136,0.9536018726281101,1.114692705863566
-2.4603388620421165,0.8247160201731449,0.9536018726281101,1.114692705863566
-2.4603388620421165,0.8247160201731449,0.9536018726281101,1.114692705863566
-2.4603388620421165,0.8262503755595136,0.9536018726281101,1.114692705863566
-2.4603388620421165,0.8247160201731449,0.9536018726281101,1.114692705863566
-2.4603388620421165,0.8247160201731449,0.9536018726281101,1.114692705863566
-2.4603388620421165,0.8247160201731449,0.9536018726281101,1.114692705863566
-2.4603388620421165,0.8247160201731449,0.9536018726281101,1.114692705863566
-2.4603388620421165,0.8231816647867758,0.9536018726281101,1.114692705863566
-2.4603388620421165,0.8231816647867758,0.9536018726281101,1.114692705863566
-2.4603388620421165,0.8231816647867758,0.9536018726281101,1.114692705863566
-2.4603388620421165,0.8201129540140388,0.9536018726281101,1.114692705863566
-2.4603388620421165,0.8185785986276701,0.9536018726281101,1.114692705863566
-2.4603388620421165,0.8185785986276701,0.9536018726281101,1.114692705863566
-2.4603388620421165,0.8185785986276701,0.9536018726281101,1.114692705863566
-2.4603388620421165,0.8185785986276701,0.9536018726281101,1.114692705863566
-2.4603388620421165,0.8155098878549327,0.9536018726281101,1.114692705863566
-2.4603388620421165,0.8155098878549327,0.9536018726281101,1.114692705863566
-2.4603388620421165,0.8155098878549327,0.9536018726281101,1.114692705863566
-2.4603388620421165,0.8155098878549327,0.9536018726281101,1.114692705863566
-2.4603388620421165,0.8155098878549327,0.9536018726281101,1.114692705863566
-2.4603388620421165,0.8124411770821958,0.9536018726281101,1.114692705863566
-2.4603388620421165,0.8078381109230897,0.9536018726281101,1.114692705863566
-2.4603388620421165,0.806303755536721,0.9536018726281101,1.114692705863566
-2.4603388620421165,0.806303755536721,0.9536018726281101,1.114692705863566
-2.4603388620421165,0.806303755536721,0.9536018726281101,1.114692705863566
-2.4603388620421165,0.806303755536721,0.9536018726281101,1.114692705863566
-2.4603388620421165,0.806303755536721,0.9536018726281101,1.114692705863566
-2.4603388620421165,0.806303755536721,0.9536018726281101,1.114692705863566
-2.4603388620421165,0.806303755536721,0.9536018726281101,1.114692705863566
-2.4603388620421165,0.806303755536721,0.9536018726281101,1.114692705863566
-2.4603388620421165,0.8032350447639836,0.9536018726281101,1.114692705863566
-2.4603388620421165,0.8032350447639836,0.9536018726281101,1.1198059751565181
-2.4603388620421165,0.8032350447639836,0.9536018726281101,1.114692705863566
-2.4603388620421165,0.8032350447639836,0.9536018726281101,1.114692705863566
-2.4603388620421165,0.8032350447639836,0.9536018726281101,1.114692705863566
-2.4603388620421165,0.8032350447639836,0.9536018726281101,1.114692705863566
-2.4603388620421165,0.8001663339912466,0.9536018726281101,1.114692705863566
-2.4603388620421165,0.7970976232185092,0.9536018726281101,1.114692705863566
-2.4603388620421165,0.7970976232185092,0.9536018726281101,1.114692705863566
-2.4603388620421165,0.7970976232185092,0.9536018726281101,1.114692705863566
-2.4603388620421165,0.7970976232185092,0.9536018726281101,1.114692705863566
-2.4603388620421165,0.7970976232185092,0.9536018726281101,1.114692705863566
-2.4603388620421165,0.7970976232185092,0.9536018726281101,1.114692705863566
-2.4603388620421165,0.7970976232185092,0.9536018726281101,1.1198059751565181
-2.4603388620421165,0.7955632678321405,0.9536018726281101,1.114692705863566
-2.4603388620421165,0.7909602016730348,0.9536018726281101,1.114692705863566
-2.4603388620421165,0.7894258462866657,0.9536018726281101,1.114692705863566
-2.4603388620421165,0.7878914909002974,0.9536018726281101,1.114692705863566
-2.4603388620421165,0.7863571355139287,0.9536018726281101,1.114692705863566
-2.4603388620421165,0.7863571355139287,0.9536018726281101,1.114692705863566
-2.4603388620421165,0.7863571355139287,0.9536018726281101,1.114692705863566
-2.4603388620421165,0.7863571355139287,0.9536018726281101,1.114692705863566
-2.4603388620421165,0.7863571355139287,0.9536018726281101,1.114692705863566
-2.4603388620421165,0.7863571355139287,0.9536018726281101,1.114692705863566
-2.4603388620421165,0.7863571355139287,0.9536018726281101,1.114692705863566
-2.4603388620421165,0.7863571355139287,0.9536018726281101,1.114692705863566
-2.4603388620421165,0.7863571355139287,0.9536018726281101,1.114692705863566
-2.4603388620421165,0.7863571355139287,0.9536018726281101,1.114692705863566
-2.4603388620421165,0.78482278012756,0.9536018726281101,1.114692705863566
-2.4603388620421165,0.78482278012756,0.9536018726281101,1.114692705863566
-2.4603388620421165,0.78482278012756,0.9536018726281101,1.114692705863566
-2.4603388620421165,0.7832884247411913,0.9536018726281101,1.114692705863566
-2.4603388620421165,0.7802197139684539,0.9536018726281101,1.114692705863566
-2.4603388620421165,0.7802197139684539,0.9536018726281101,1.114692705863566
-2.4603388620421165,0.7802197139684539,0.9536018726281101,1.114692705863566
-2.4603388620421165,0.7802197139684539,0.9536018726281101,1.114692705863566
-2.4603388620421165,0.7802197139684539,0.9536018726281101,1.114692705863566
-2.4603388620421165,0.7802197139684539,0.9536018726281101,1.114692705863566
-2.4603388620421165,0.7802197139684539,0.9536018726281101,1.114692705863566
-2.4603388620421165,0.7786853585820857,0.9536018726281101,1.114692705863566
-2.4603388620421165,0.7786853585820857,0.9536018726281101,1.114692705863566
-2.4603388620421165,0.7740822924229795,0.9536018726281101,1.114692705863566
-2.4603388620421165,0.7725479370366108,0.9536018726281101,1.114692705863566
-2.4603388620421165,0.7710135816502426,0.9536018726281101,1.114692705863566
-2.4603388620421165,0.7725479370366108,0.9536018726281101,1.114692705863566
-2.4603388620421165,0.7725479370366108,0.9536018726281101,1.114692705863566
-2.4603388620421165,0.7710135816502426,0.9536018726281101,1.114692705863566
-2.4603388620421165,0.7725479370366108,0.9536018726281101,1.114692705863566
-2.4603388620421165,0.7710135816502426,0.9536018726281101,1.114692705863566
-2.4603388620421165,0.7710135816502426,0.9536018726281101,1.114692705863566
-2.4603388620421165,0.7710135816502426,0.9536018726281101,1.114692705863566
-2.4603388620421165,0.7694792262638734,0.9536018726281101,1.114692705863566
-2.4603388620421165,0.7633418047183991,0.9536018726281101,1.114692705863566
-2.4603388620421165,0.7618074493320304,0.9536018726281101,1.114692705863566
-2.4603388620421165,0.7618074493320304,0.9536018726281101,1.114692705863566
-2.4603388620421165,0.7618074493320304,0.9536018726281101,1.114692705863566
-2.4603388620421165,0.7618074493320304,0.9536018726281101,1.114692705863566
-2.4603388620421165,0.7618074493320304,0.9536018726281101,1.114692705863566
-2.4603388620421165,0.7618074493320304,0.9536018726281101,1.114692705863566
-2.4603388620421165,0.7618074493320304,0.9536018726281101,1.114692705863566
-2.4603388620421165,0.7602730939456617,0.9536018726281101,1.114692705863566
-2.4603388620421165,0.7587387385592934,0.9536018726281101,1.114692705863566
-2.4603388620421165,0.7587387385592934,0.9536018726281101,1.114692705863566
-2.4603388620421165,0.7587387385592934,0.9536018726281101,1.114692705863566
-2.4603388620421165,0.7587387385592934,0.9536018726281101,1.114692705863566
-2.4603388620421165,0.7587387385592934,0.9536018726281101,1.114692705863566
