0.0,0.0,0.0,0.0
0.0,0.0,0.0,0.0
0.0,0.0,0.0,0.0
0.0,0.007820136852394917,0.0,-0.007820136852394917
-0.05865102639296188,0.07038123167155426,0.05083088954056696,-0.007820136852394917
-0.06256109481915934,0.093841642228739,0.06647116324535679,0.039100684261974585
-0.05865102639296188,0.07038123167155426,0.05083088954056696,0.039100684261974585
-0.06256109481915934,0.08211143695014662,0.05474095796676442,0.043010752688172046
-0.011730205278592375,0.07429130009775171,0.0,0.043010752688172046
0.0,0.06647116324535679,0.0,0.015640273704789834
0.0,0.0,0.0,0.015640273704789834
-0.06256109481915934,0.07038123167155426,0.0469208211143695,0.0
-0.05865102639296188,0.08993157380254155,0.06647116324535679,0.0
-0.06256109481915934,0.06256109481915934,0.05083088954056696,0.05083088954056696
-0.06256109481915934,0.07820136852394917,0.05474095796676442,0.05083088954056696
-0.05865102639296188,0.07038123167155426,0.05865102639296188,0.0469208211143695
-0.06256109481915934,0.07038123167155426,0.05474095796676442,0.0469208211143695
-0.06256109481915934,0.07429130009775171,0.05865102639296188,0.03519061583577713
-0.06256109481915934,0.07429130009775171,0.019550342130987292,0.03519061583577713
0.0,0.07038123167155426,0.0,0.0469208211143695
0.0,0.06256109481915934,0.0,0.0469208211143695
0.0,0.0,0.0,0.0
-0.10166177908113393,0.09775171065493646,0.10166177908113393,0.0
-0.10166177908113393,0.10166177908113393,0.09775171065493646,0.0469208211143695
-0.06647116324535679,0.09775171065493646,0.015640273704789834,0.0469208211143695
0.0,0.0469208211143695,0.0,0.05083088954056696
0.0,0.0,0.0,0.05083088954056696
0.0,0.0,0.0,-0.011730205278592375
0.0,0.0,0.0,-0.011730205278592375
0.0,-0.007820136852394917,0.0,0.0
0.0,0.0,0.0,0.0
-0.02346041055718475,-0.03128054740957967,-0.039100684261974585,0.0039100684261974585
0.0,-0.0469208211143695,0.0,0.0039100684261974585
0.0,-0.043010752688172046,0.0,0.0
0.0,-0.02346041055718475,0.0,0.0
-0.03128054740957967,-0.019550342130987292,-0.02737047898338221,0.0
-0.011730205278592375,-0.02737047898338221,-0.03128054740957967,0.0
0.0,-0.02737047898338221,0.0,0.0
0.0,-0.019550342130987292,0.0,0.0039100684261974585
0.0,-0.02346041055718475,0.0,0.0039100684261974585
0.0,-0.02737047898338221,0.0,-0.0039100684261974585
0.0,-0.02737047898338221,0.0,-0.0039100684261974585
0.0,-0.02346041055718475,0.0,0.0039100684261974585
0.0,-0.007820136852394917,0.0,0.0039100684261974585
-0.03519061583577713,-0.03519061583577713,-0.02737047898338221,0.0
-0.03128054740957967,0.0,0.0,0.0
-0.02737047898338221,0.06256109481915934,0.02346041055718475,-0.0039100684261974585
0.0,0.08211143695014662,0.011730205278592375,-0.0039100684261974585
0.0,0.07820136852394917,0.0,0.0039100684261974585
0.0,0.06647116324535679,0.0,0.0039100684261974585
0.0,0.007820136852394917,0.0,0.0
-0.011730205278592375,0.11339198435972629,0.02737047898338221,0.0
0.0,0.06647116324535679,-0.011730205278592375,0.0
0.0,0.0,0.0,0.0
0.0,0.0,0.0,-0.007820136852394917
0.0,0.0,0.0,-0.007820136852394917
0.0,0.0,0.0,0.0
0.0,0.0,0.0,0.0
0.0,-0.03128054740957967,-0.011730205278592375,0.015640273704789834
0.0,-0.039100684261974585,0.0,0.015640273704789834
0.0,-0.02346041055718475,-0.019550342130987292,0.0
0.0,-0.02346041055718475,0.0,0.0
0.0,-0.02346041055718475,0.0,0.0
0.0,-0.019550342130987292,0.0,0.0
0.0,-0.02737047898338221,0.0,0.0
0.0,-0.019550342130987292,0.0,0.0
0.0,0.0,0.0,0.0
0.0,-0.03128054740957967,0.03519061583577713,0.0
0.0,-0.03519061583577713,0.007820136852394917,0.043010752688172046
0.0,-0.03128054740957967,0.0,0.043010752688172046
0.0,-0.02737047898338221,0.0,0.03128054740957967
0.0,-0.019550342130987292,0.0,0.03128054740957967
-0.011730205278592375,0.03519061583577713,0.05083088954056696,0.0
0.0,0.039100684261974585,0.05474095796676442,0.0
0.0,0.0,0.03128054740957967,0.05865102639296188
0.0,0.0,0.015640273704789834,0.05865102639296188
-0.007820136852394917,0.07820136852394917,0.07820136852394917,0.03519061583577713
0.0,0.0,0.0,0.03519061583577713
0.0,0.0,0.0,0.039100684261974585
0.0,0.0,0.0,0.039100684261974585
0.0,0.0,0.0,0.0
0.0,-0.007820136852394917,0.0,0.0
0.0,-0.039100684261974585,0.0,0.0
0.0,-0.015640273704789834,0.0,0.0
0.0,-0.015640273704789834,0.0,0.0
0.0,-0.02737047898338221,0.0,0.0
0.0,-0.02346041055718475,0.0,0.0
0.0,-0.02737047898338221,0.0,0.0
0.0,-0.02737047898338221,0.0,0.0
0.0,-0.011730205278592375,0.0,0.0
-0.02737047898338221,-0.03519061583577713,0.05474095796676442,0.0
0.0,-0.02346041055718475,0.007820136852394917,0.0
0.0,-0.03128054740957967,0.0,0.0469208211143695
0.0,-0.03128054740957967,0.0,0.0469208211143695
0.0,-0.02737047898338221,0.0,0.0039100684261974585
0.0,-0.015640273704789834,0.0,0.0
-0.043010752688172046,0.03128054740957967,0.05474095796676442,0.0
0.0,0.02346041055718475,0.06256109481915934,0.05474095796676442
0.0,0.0,0.05474095796676442,0.05474095796676442
-0.011730205278592375,0.011730205278592375,0.015640273704789834,0.03519061583577713
-0.015640273704789834,0.07038123167155426,0.093841642228739,0.03519061583577713
0.0,0.0,0.0,0.06647116324535679
0.0,0.0,0.0,0.06647116324535679
0.0,0.0,0.0,-0.011730205278592375
0.0,0.0,0.0,-0.011730205278592375
0.0,-0.007820136852394917,0.0,0.0
0.0,-0.02346041055718475,0.0,0.0
0.0,0.0,0.0,0.007820136852394917
0.0,-0.02737047898338221,0.0,0.007820136852394917
0.0,-0.03128054740957967,0.0,0.0
0.0,-0.02346041055718475,0.0,0.0
0.0,-0.02737047898338221,0.0,0.0
0.0,-0.02346041055718475,0.0,0.0
0.0,0.0,0.0,0.0
0.0,-0.03128054740957967,0.0469208211143695,0.0
0.0,-0.03128054740957967,0.007820136852394917,0.03128054740957967
0.0,-0.03519061583577713,0.0,0.03128054740957967
0.0,-0.02737047898338221,0.0,-0.0039100684261974585
0.0,-0.039100684261974585,0.0,-0.0039100684261974585
0.0,-0.015640273704789834,0.0,0.0
0.019550342130987292,0.0469208211143695,0.0469208211143695,0.0
0.007820136852394917,0.03519061583577713,0.06256109481915934,0.02346041055718475
0.0,0.03519061583577713,0.07038123167155426,0.02346041055718475
0.0,0.03128054740957967,0.0,0.0
0.0,0.03128054740957967,0.0,0.0
0.0,0.03128054740957967,0.0,0.0
0.007820136852394917,0.015640273704789834,0.0,0.0
0.0,0.0,0.0,0.0
0.0,0.0,0.0,0.0
0.0,-0.043010752688172046,0.0,-0.007820136852394917
0.0,-0.007820136852394917,0.0,-0.007820136852394917
-0.02737047898338221,-0.019550342130987292,-0.02737047898338221,0.011730205278592375
0.0,-0.03128054740957967,-0.007820136852394917,0.011730205278592375
0.0,-0.02346041055718475,0.0,0.0
0.0,-0.019550342130987292,0.0,0.0
0.0,-0.02346041055718475,0.0,0.0
-0.007820136852394917,-0.007820136852394917,0.0,0.0
-0.07038123167155426,-0.05865102639296188,-0.0469208211143695,0.0
-0.06647116324535679,-0.011730205278592375,-0.0469208211143695,0.0
-0.0469208211143695,0.0,-0.015640273704789834,-0.0039100684261974585
0.0,0.007820136852394917,-0.007820136852394917,-0.0039100684261974585
-0.06256109481915934,0.07429130009775171,-0.03519061583577713,-0.0039100684261974585
-0.05865102639296188,0.07429130009775171,-0.011730205278592375,-0.0039100684261974585
-0.05865102639296188,0.07038123167155426,0.0,-0.02346041055718475
-0.015640273704789834,0.007820136852394917,-0.011730205278592375,-0.02346041055718475
-0.08602150537634409,0.10166177908113393,0.0,-0.0039100684261974585
0.0,0.019550342130987292,-0.011730205278592375,-0.0039100684261974585
0.0,0.0,0.0,-0.007820136852394917
0.0,0.0,0.0,-0.007820136852394917
0.0,0.0,0.0,-0.0039100684261974585
0.0,0.0,0.0,-0.0039100684261974585
0.007820136852394917,-0.011730205278592375,0.0,0.0
0.0,-0.05474095796676442,0.0,0.0
0.0,-0.039100684261974585,-0.007820136852394917,0.0039100684261974585
0.0,-0.019550342130987292,-0.02737047898338221,0.007820136852394917
0.0,-0.02346041055718475,-0.007820136852394917,0.007820136852394917
0.0,-0.019550342130987292,0.0,0.0039100684261974585
0.0,-0.02737047898338221,0.0,0.0039100684261974585
0.0,-0.02737047898338221,0.0,0.0
0.0,-0.015640273704789834,-0.007820136852394917,0.0
0.0,-0.0469208211143695,-0.05474095796676442,-0.019550342130987292
0.0,0.0,-0.05083088954056696,-0.019550342130987292
0.0,0.007820136852394917,-0.043010752688172046,-0.007820136852394917
-0.02737047898338221,0.08602150537634409,-0.039100684261974585,-0.007820136852394917
0.0,0.08211143695014662,-0.043010752688172046,-0.0469208211143695
0.0,0.08211143695014662,-0.015640273704789834,-0.0469208211143695
0.0,0.06647116324535679,0.0,-0.02737047898338221
-0.007820136852394917,0.019550342130987292,-0.03128054740957967,-0.02737047898338221
-0.007820136852394917,0.10166177908113393,-0.015640273704789834,-0.0039100684261974585
0.0,0.08602150537634409,-0.02346041055718475,-0.0039100684261974585
0.0,0.007820136852394917,0.0,-0.03128054740957967
0.0,0.0,0.0,-0.03128054740957967
0.0,-0.007820136852394917,0.0,-0.0039100684261974585
0.0,0.0,0.0,-0.0039100684261974585
0.0,-0.015640273704789834,0.0,0.0
0.0,-0.0469208211143695,-0.019550342130987292,0.0
0.0,-0.05083088954056696,0.0,0.007820136852394917
-0.007820136852394917,-0.007820136852394917,0.0,0.007820136852394917
-0.019550342130987292,-0.02346041055718475,-0.019550342130987292,0.007820136852394917
0.0,-0.03128054740957967,0.0,0.007820136852394917
0.0,-0.02737047898338221,0.0,0.0
0.0,-0.02737047898338221,0.0,0.0
0.0,-0.011730205278592375,0.0,0.0
-0.007820136852394917,-0.007820136852394917,0.0,0.0
-0.039100684261974585,-0.02346041055718475,0.0,0.0
-0.019550342130987292,0.0,0.0,0.0
-0.03128054740957967,0.07429130009775171,0.02346041055718475,0.0
0.0,0.06647116324535679,0.007820136852394917,0.0
0.0,0.05474095796676442,0.02346041055718475,0.0
0.0,0.08602150537634409,0.007820136852394917,0.0
0.0,0.0,0.0,-0.011730205278592375
0.0,0.0,0.0,-0.011730205278592375
0.0,-0.007820136852394917,0.0,0.0
0.0,0.0,0.0,0.0
0.0,-0.015640273704789834,0.0,0.0039100684261974585
0.0,-0.0469208211143695,0.0,0.0039100684261974585
0.0,-0.043010752688172046,0.0,0.011730205278592375
0.0,0.0,0.0,0.011730205278592375
-0.015640273704789834,-0.02346041055718475,0.0,0.0039100684261974585
0.0,-0.03128054740957967,0.0,0.0039100684261974585
0.0,-0.02346041055718475,0.0,0.007820136852394917
0.0,-0.02737047898338221,0.0,0.007820136852394917
0.0,-0.02346041055718475,0.0,0.0
-0.011730205278592375,-0.019550342130987292,0.0,0.0
-0.05865102639296188,-0.043010752688172046,0.0,0.0
-0.0469208211143695,0.011730205278592375,-0.007820136852394917,0.0
-0.05083088954056696,0.08211143695014662,0.0,0.0
-0.039100684261974585,0.07429130009775171,0.0,0.0
-0.02737047898338221,0.043010752688172046,0.0,-0.02346041055718475
-0.015640273704789834,0.03128054740957967,-0.02737047898338221,-0.02346041055718475
0.0,0.03128054740957967,0.0,-0.007820136852394917
0.0,0.02737047898338221,0.0,-0.007820136852394917
0.0,0.02737047898338221,0.0,-0.02737047898338221
0.0,0.019550342130987292,-0.015640273704789834,-0.02737047898338221
0.0,0.0,-0.007820136852394917,-0.0039100684261974585
0.0,0.0,0.0,0.0
0.0,-0.03519061583577713,0.0,0.0
0.0,0.0,0.0,0.02737047898338221
0.0,-0.019550342130987292,0.0,0.02737047898338221
0.0,-0.02346041055718475,0.0,0.02346041055718475
0.0,-0.02737047898338221,0.0,0.02346041055718475
0.0,-0.019550342130987292,0.0,0.0
0.0,-0.019550342130987292,0.0,0.0
0.0,-0.02737047898338221,0.0,0.0
-0.011730205278592375,-0.02737047898338221,0.011730205278592375,0.0
-0.05474095796676442,-0.03519061583577713,0.039100684261974585,0.011730205278592375
-0.03128054740957967,-0.043010752688172046,0.0,0.011730205278592375
0.0,-0.03519061583577713,0.0,0.02737047898338221
0.0,-0.039100684261974585,0.0,0.02737047898338221
-0.007820136852394917,-0.015640273704789834,0.011730205278592375,0.0
-0.05083088954056696,0.05865102639296188,0.043010752688172046,0.0
-0.05865102639296188,0.08211143695014662,0.07038123167155426,0.03519061583577713
-0.02737047898338221,0.10557184750733138,0.03128054740957967,0.03519061583577713
0.0,0.0,-0.007820136852394917,0.02737047898338221
0.0,0.0,0.0,0.02737047898338221
0.0,0.0,0.0,0.0
0.0,-0.011730205278592375,0.0,0.0
0.0,0.0,0.0,0.0
-0.011730205278592375,-0.019550342130987292,0.0,0.0
-0.007820136852394917,-0.0469208211143695,0.0,0.007820136852394917
0.0,-0.05474095796676442,0.0,0.007820136852394917
-0.007820136852394917,-0.039100684261974585,-0.007820136852394917,0.0
-0.02737047898338221,-0.015640273704789834,0.0,0.0
0.0,-0.02346041055718475,0.0,0.0
0.0,-0.02346041055718475,0.0,0.0
0.0,-0.02737047898338221,0.0,0.0
0.0,-0.02737047898338221,0.0,0.0
0.0,-0.02737047898338221,0.0,0.0
-0.02346041055718475,-0.015640273704789834,0.0,0.0
-0.06647116324535679,-0.05474095796676442,0.0,0.0
-0.05474095796676442,-0.02346041055718475,0.0,0.0
-0.019550342130987292,0.011730205278592375,0.007820136852394917,0.0
-0.06256109481915934,0.08211143695014662,0.03519061583577713,0.0
-0.05474095796676442,0.07038123167155426,0.0,-0.007820136852394917
-0.03128054740957967,0.02737047898338221,0.019550342130987292,-0.007820136852394917
-0.02737047898338221,0.03128054740957967,0.0,0.0
-0.02737047898338221,0.03128054740957967,0.0,0.0
-0.02737047898338221,0.03128054740957967,0.0,0.0
0.0,0.03128054740957967,0.0,0.0
0.0,0.03128054740957967,0.0,0.0
-0.007820136852394917,0.0,0.0,0.0
-0.007820136852394917,0.0,0.0,0.0
0.0,-0.019550342130987292,0.0,0.0
0.0,-0.05083088954056696,0.0,0.0
0.0,-0.05474095796676442,0.0,0.0
0.0,-0.03128054740957967,0.0,0.0039100684261974585
0.0,0.0,0.0,0.0039100684261974585
0.0,0.0,-0.015640273704789834,0.0039100684261974585
0.0,0.0,0.0,0.0039100684261974585
0.0,0.0,0.0,0.0
0.0,0.0,0.0,0.0
0.0,0.0,0.0,0.0
0.0,0.0,0.0,0.0
0.0,0.0,0.0,0.0
0.0,0.0,0.0,0.0
0.0,0.0,0.0,0.0
0.0,0.0,0.0,0.0
0.0,0.0,0.0,0.0
0.0,0.0,0.0,0.0
0.0,0.0,0.0,0.0
0.0,0.0,0.0,0.0
0.0,0.0,0.0,0.0
0.0,0.0,0.0,0.0
0.0,0.0,0.0,0.0
0.0,0.0,0.0,0.0
0.0,0.0,0.0,0.0
0.0,0.0,0.0,0.0
0.0,0.0,0.0,0.0
0.0,0.0,0.0,0.0
0.0,0.0,0.0,0.0
0.0,0.0,0.0,0.0
0.0,0.0,0.0,0.0
0.0,0.0,0.0,0.0
0.0,0.0,0.0,0.0
0.0,0.0,0.0,0.0
0.0,0.0,0.0,0.0
0.0,-0.007820136852394917,0.0,0.0
0.0,0.0,0.0,0.0
0.0,0.0,0.0,0.0
0.0,0.0,0.0,0.0
0.0,0.0,0.0,0.0
0.0,0.0,0.0,0.0
0.0,0.0,0.0,0.0
0.0,0.0,0.0,0.0
0.0,0.0,0.0,0.0
0.0,0.0,0.0,0.0
0.0,0.0,0.0,0.0
0.0,0.0,0.0,0.0
0.0,0.0,0.0,0.0
0.0,0.0,0.0,0.0
0.0,0.0,0.0,0.0
0.0,0.0,0.0,0.0
0.0,0.0,0.0,0.0
0.0,0.0,0.0,0.0
0.0,0.0,0.0,0.0
0.0,0.0,0.0,0.0
0.0,0.0,0.0,0.0
0.0,0.0,0.0,0.0
0.0,0.0,0.0,0.0
0.0,0.0,0.0,0.0
0.0,0.0,0.0,0.0
0.0,0.0,0.0,0.0
0.0,0.0,0.0,0.0
0.0,0.0,0.0,0.0
0.0,0.0,0.0,0.0
0.0,0.0,0.0,0.0
0.0,0.0,0.0,0.0
0.0,0.0,0.0,0.0
0.0,-0.011730205278592375,0.0,0.0
0.0,0.0,0.0,0.0
0.0,0.0,0.0,0.0
0.0,0.0,0.0,0.0
0.0,0.0,0.0,0.0
0.0,0.0,0.0,0.0
0.0,0.0,0.0,0.0
0.0,0.0,0.0,0.0
0.0,0.0,0.0,0.0
0.0,0.0,0.0,0.0
0.0,0.0,0.0,0.0
0.0,-0.007820136852394917,0.0,0.0
0.0,0.0,0.0,0.0
0.0,0.0,0.0,0.0
0.0,0.0,0.0,0.0
0.0,0.0,0.0,0.0
0.0,-0.007820136852394917,0.0,0.0
0.0,0.0,0.0,0.0
0.0,0.0,0.0,0.0
0.0,0.0,0.0,0.0
0.0,0.0,0.0,0.0
0.0,0.0,0.0,0.0
0.0,0.0,0.0,0.0
0.0,0.0,0.0,0.0
0.0,0.0,0.0,0.0
0.0,0.0,0.0,0.0
0.0,0.0,0.0,0.0
0.0,0.0,0.0,0.0
0.0,0.0,0.0,0.0
0.0,0.0,0.0,0.0
0.0,0.0,0.0,0.0
0.0,-0.007820136852394917,0.0,0.0
0.0,0.0,0.0,0.0
0.0,0.0,0.0,0.0
0.0,0.0,0.0,0.0
0.0,0.0,0.0,0.0
0.0,0.0,0.0,0.0
0.0,-0.007820136852394917,0.0,0.0
0.0,0.0,0.0,0.0
0.0,0.0,0.0,0.0
0.0,0.0,0.0,0.0
0.0,0.0,0.0,0.0
0.0,0.0,0.0,0.0
0.0,0.0,0.0,0.0
0.0,0.0,0.0,0.0
0.0,0.0,0.0,0.0
0.0,0.0,0.0,0.0
0.0,0.0,0.0,0.0
0.0,0.0,0.0,0.0
0.0,0.0,0.0,0.0
0.0,0.0,0.0,0.0
0.0,0.0,0.0,0.0
0.0,0.0,0.0,0.0
0.0,0.0,0.0,0.0
0.0,0.0,0.0,0.0
0.0,0.0,0.0,0.0
0.0,0.0,0.0,0.0
0.0,0.0,0.0,0.0
0.0,0.0,0.0,0.0
0.0,0.0,0.0,0.0
0.0,0.0,0.0,0.0
0.0,0.0,0.0,0.0
0.0,0.0,0.0,0.0
0.0,0.0,0.0,0.0
0.0,0.0,0.0,0.0
0.0,0.0,0.0,0.0
0.0,0.0,0.0,0.0
0.0,0.0,0.0,0.0
0.0,0.0,0.0,0.0
0.0,0.0,0.0,0.0
0.0,0.0,0.0,0.0
0.0,0.0,0.0,0.0
0.0,-0.007820136852394917,0.0,0.0
0.0,0.0,0.0,0.0
0.0,0.0,0.0,0.0
0.0,0.0,0.0,0.0
0.0,0.0,0.0,0.0
0.0,0.0,0.0,0.0
0.0,0.0,0.0,0.0
0.0,0.0,0.0,0.0
0.0,0.0,0.0,0.0
0.0,0.0,0.0,0.0
0.0,-0.007820136852394917,0.0,0.0
0.0,-0.007820136852394917,0.0,0.0
0.0,0.0,0.0,0.0
0.0,0.0,0.0,0.0
0.0,0.0,0.0,0.0
0.0,0.0,0.0,0.0
0.0,0.0,0.0,0.0
0.0,0.0,0.0,0.0
0.0,0.0,0.0,0.0
0.0,0.0,0.0,0.0
0.0,0.0,0.0,0.0
0.0,0.0,0.0,0.0
0.0,0.0,0.0,0.0
0.0,0.0,0.0,0.0
0.0,0.0,0.0,0.0
