1448387032036463,1448387032037144,1448387032038150,1448387032039172
1448387032103205,1448387032104133,1448387032105176,1448387032106131
1448387032169947,1448387032171130,1448387032172127,1448387032173133
1448387032236678,1448387032238132,1448387032239143,1448387032240127
1448387032303416,1448387032304124,1448387032305163,1448387032306122
1448387032370152,1448387032371144,1448387032372146,1448387032373141
1448387032436888,1448387032438144,1448387032439138,1448387032440145
1448387032503626,1448387032504154,1448387032505122,1448387032506166
1448387032570363,1448387032571147,1448387032572141,1448387032573139
1448387032637100,1448387032638143,1448387032639140,1448387032640141
1448387032703830,1448387032705131,1448387032706116,1448387032707111
1448387032770568,1448387032771143,1448387032772145,1448387032773140
1448387032837308,1448387032838156,1448387032839110,1448387032840165
1448387032904046,1448387032905155,1448387032906144,1448387032907150
1448387032970782,1448387032972148,1448387032973141,1448387032974155
1448387033037507,1448387033038131,1448387033039127,1448387033040131
1448387033104231,1448387033105113,1448387033106105,1448387033107137
1448387033170958,1448387033172140,1448387033173138,1448387033174129
1448387033237696,1448387033239143,1448387033240136,1448387033241141
1448387033304434,1448387033305116,1448387033306158,1448387033307122
1448387033371172,1448387033372152,1448387033373141,1448387033374141
1448387033437909,1448387033439145,1448387033440153,1448387033441150
1448387033504647,1448387033506147,1448387033507121,1448387033508152
1448387033571384,1448387033572152,1448387033573146,1448387033574142
1448387033638120,1448387033639161,1448387033640135,1448387033641150
1448387033704859,1448387033706171,1448387033707129,1448387033708134
1448387033771596,1448387033772147,1448387033773140,1448387033774141
1448387033838337,1448387033839156,1448387033840145,1448387033841158
1448387033905074,1448387033906164,1448387033907119,1448387033908152
1448387033971811,1448387033973147,1448387033974141,1448387033975194
1448387034038549,1448387034039108,1448387034040145,1448387034041135
1448387034105285,1448387034106124,1448387034107157,1448387034108144
1448387034172020,1448387034173140,1448387034174134,1448387034175133
1448387034238757,1448387034240113,1448387034241141,1448387034242150
1448387034305494,1448387034306166,1448387034307140,1448387034308128
1448387034372231,1448387034373165,1448387034374157,1448387034375149
1448387034438968,1448387034440146,1448387034441148,1448387034442126
1448387034505705,1448387034507153,1448387034508161,1448387034509143
1448387034572443,1448387034573151,1448387034574167,1448387034575144
1448387034639179,1448387034640142,1448387034641145,1448387034642150
1448387034705916,1448387034707138,1448387034708156,1448387034709125
1448387034772653,1448387034774141,1448387034775162,1448387034776140
1448387034839392,1448387034840156,1448387034841154,1448387034842149
1448387034906129,1448387034907155,1448387034908114,1448387034909149
1448387034972867,1448387034974153,1448387034975142,1448387034976140
1448387035039600,1448387035041138,1448387035042142,1448387035043143
1448387035106338,1448387035107158,1448387035108149,1448387035109164
1448387035173075,1448387035174157,1448387035175169,1448387035176164
1448387035239813,1448387035241166,1448387035242164,1448387035243116
1448387035306551,1448387035307136,1448387035308171,1448387035309153
1448387035373288,1448387035374147,1448387035375145,1448387035376157
1448387035440026,1448387035441121,1448387035442158,1448387035443153
1448387035506763,1448387035508124,1448387035509130,1448387035510162
1448387035573487,1448387035574149,1448387035575158,1448387035576141
1448387035640209,1448387035641158,1448387035642128,1448387035643132
1448387035706945,1448387035708138,1448387035709133,1448387035710143
1448387035773683,1448387035775156,1448387035776145,1448387035777144
1448387035840420,1448387035841132,1448387035842135,1448387035843137
1448387035907156,1448387035908126,1448387035909149,1448387035910137
1448387035973893,1448387035975164,1448387035976140,1448387035977139
1448387036040631,1448387036042140,1448387036043151,1448387036044144
1448387036107370,1448387036108150,1448387036109134,1448387036110148
1448387036174124,1448387036175161,1448387036176158,1448387036177157
1448387036240865,1448387036242159,1448387036243152,1448387036244158
1448387036307607,1448387036309152,1448387036310137,1448387036311128
1448387036374349,1448387036375159,1448387036376158,1448387036377162
1448387036441102,1448387036442157,1448387036443176,1448387036444153
1448387036507842,1448387036509181,1448387036510137,1448387036511135
1448387036574583,1448387036576148,1448387036577152,1448387036578153
1448387036641324,1448387036642160,1448387036643153,1448387036644147
1448387036708077,1448387036709177,1448387036710138,1448387036711128
1448387036774818,1448387036776161,1448387036777148,1448387036778152
1448387036841554,1448387036843110,1448387036844135,1448387036845149
1448387036908293,1448387036909144,1448387036910129,1448387036911160
1448387036975031,1448387036976151,1448387036977147,1448387036978158
1448387037041769,1448387037043145,1448387037044149,1448387037045157
1448387037108512,1448387037109151,1448387037110167,1448387037111141
1448387037175248,1448387037176160,1448387037177167,1448387037178148
1448387037241982,1448387037243155,1448387037244149,1448387037245138
1448387037308719,1448387037310150,1448387037311166,1448387037312149
1448387037375457,1448387037376142,1448387037377148,1448387037378157
1448387037442193,1448387037443153,1448387037444147,1448387037445148
1448387037508927,1448387037510156,1448387037511120,1448387037512106
1448387037575667,1448387037577164,1448387037578157,1448387037579134
1448387037642420,1448387037643155,1448387037644125,1448387037645157
1448387037709158,1448387037710165,1448387037711133,1448387037712134
1448387037775894,1448387037777160,1448387037778153,1448387037779147
1448387037842631,1448387037844143,1448387037845139,1448387037846139
1448387037909373,1448387037910122,1448387037911165,1448387037912142
1448387037976111,1448387037977140,1448387037978158,1448387037979148
1448387038042853,1448387038044165,1448387038045157,1448387038046157
1448387038109591,1448387038111132,1448387038112168,1448387038113147
1448387038176332,1448387038177150,1448387038178153,1448387038179162
1448387038243069,1448387038244173,1448387038245139,1448387038246120
1448387038309810,1448387038311139,1448387038312158,1448387038313119
1448387038376551,1448387038378143,1448387038379151,1448387038380148
1448387038443292,1448387038444168,1448387038445157,1448387038446182
1448387038510029,1448387038511149,1448387038512163,1448387038513133
1448387038576769,1448387038578157,1448387038579152,1448387038580152
1448387038643511,1448387038644164,1448387038645147,1448387038646126
1448387038710253,1448387038711177,1448387038712166,1448387038713166
1448387038776995,1448387038778159,1448387038779152,1448387038780162
1448387038843736,1448387038845158,1448387038846149,1448387038847143
1448387038910478,1448387038911176,1448387038912131,1448387038913157
1448387038977219,1448387038978161,1448387038979162,1448387038980148
1448387039043961,1448387039045185,1448387039046158,1448387039047131
1448387039110696,1448387039112119,1448387039113171,1448387039114160
1448387039177433,1448387039178141,1448387039179152,1448387039180181
1448387039244171,1448387039245150,1448387039246113,1448387039247136
1448387039310908,1448387039312122,1448387039313120,1448387039314147
1448387039377645,1448387039379136,1448387039380143,1448387039381138
1448387039444382,1448387039445137,1448387039446134,1448387039447136
1448387039511123,1448387039512122,1448387039513160,1448387039514140
1448387039577861,1448387039579140,1448387039580153,1448387039581139
1448387039644598,1448387039646134,1448387039647136,1448387039648165
1448387039711336,1448387039712136,1448387039713139,1448387039714117
1448387039778076,1448387039779141,1448387039780160,1448387039781160
1448387039844815,1448387039846142,1448387039847141,1448387039848110
1448387039911552,1448387039913106,1448387039914156,1448387039915121
1448387039978292,1448387039979145,1448387039980143,1448387039981143
1448387040045029,1448387040046109,1448387040047130,1448387040048123
1448387040111766,1448387040113145,1448387040114120,1448387040115123
1448387040178504,1448387040179135,1448387040180131,1448387040181133
1448387040245242,1448387040246098,1448387040247138,1448387040248106
1448387040311980,1448387040313122,1448387040314152,1448387040315130
1448387040378717,1448387040380142,1448387040381149,1448387040382144
1448387040445453,1448387040446140,1448387040447135,1448387040448157
1448387040512178,1448387040513111,1448387040514107,1448387040515121
1448387040578902,1448387040580138,1448387040581129,1448387040582126
1448387040645627,1448387040647122,1448387040648154,1448387040649120
1448387040712351,1448387040713144,1448387040714103,1448387040715139
1448387040779075,1448387040780134,1448387040781128,1448387040782131
1448387040845799,1448387040847131,1448387040848134,1448387040849148
1448387040912523,1448387040914126,1448387040915107,1448387040916106
1448387040979249,1448387040980169,1448387040981131,1448387040982126
1448387041045974,1448387041047126,1448387041048104,1448387041049122
1448387041112700,1448387041114138,1448387041115106,1448387041116144
1448387041179425,1448387041180139,1448387041181130,1448387041182136
1448387041246150,1448387041247127,1448387041248134,1448387041249118
1448387041312875,1448387041314150,1448387041315102,1448387041316095
1448387041379600,1448387041381122,1448387041382126,1448387041383125
1448387041446326,1448387041447132,1448387041448129,1448387041449093
1448387041513052,1448387041514112,1448387041515117,1448387041516123
1448387041579779,1448387041581128,1448387041582126,1448387041583135
1448387041646505,1448387041647129,1448387041648122,1448387041649122
1448387041713230,1448387041714146,1448387041715134,1448387041716142
1448387041779955,1448387041781130,1448387041782130,1448387041783167
1448387041846679,1448387041848123,1448387041849125,1448387041850126
1448387041913404,1448387041914126,1448387041915136,1448387041916118
1448387041980139,1448387041981136,1448387041982126,1448387041983125
1448387042046874,1448387042048120,1448387042049121,1448387042050127
1448387042113611,1448387042115132,1448387042116130,1448387042117146
1448387042180350,1448387042181163,1448387042182156,1448387042183151
1448387042247087,1448387042248157,1448387042249203,1448387042250155
1448387042313825,1448387042315152,1448387042316158,1448387042317138
1448387042380565,1448387042382138,1448387042383145,1448387042384165
1448387042447303,1448387042448143,1448387042449146,1448387042450147
1448387042514040,1448387042515148,1448387042516138,1448387042517157
1448387042580775,1448387042582156,1448387042583155,1448387042584150
1448387042647496,1448387042648148,1448387042649137,1448387042650137
1448387042714233,1448387042715161,1448387042716118,1448387042717153
1448387042780969,1448387042782144,1448387042783141,1448387042784142
1448387042847706,1448387042849146,1448387042850165,1448387042851151
1448387042914443,1448387042915152,1448387042916163,1448387042917114
1448387042981180,1448387042982144,1448387042983146,1448387042984146
1448387043047921,1448387043049139,1448387043050149,1448387043051142
1448387043114663,1448387043116141,1448387043117137,1448387043118158
1448387043181399,1448387043182163,1448387043183155,1448387043184151
1448387043248137,1448387043249105,1448387043250146,1448387043251134
1448387043314874,1448387043316162,1448387043317132,1448387043318168
1448387043381612,1448387043383132,1448387043384138,1448387043385142
1448387043448353,1448387043449125,1448387043450156,1448387043451168
1448387043515089,1448387043516120,1448387043517131,1448387043518145
1448387043581826,1448387043583144,1448387043584141,1448387043585137
1448387043648569,1448387043650146,1448387043651141,1448387043652151
1448387043715306,1448387043716137,1448387043717122,1448387043718151
1448387043782046,1448387043783146,1448387043784138,1448387043785140
1448387043848778,1448387043850130,1448387043851139,1448387043852132
1448387043915515,1448387043916154,1448387043917146,1448387043918155
1448387043982252,1448387043983163,1448387043984146,1448387043985150
1448387044048988,1448387044050149,1448387044051146,1448387044052135
1448387044115725,1448387044117118,1448387044118123,1448387044119150
1448387044182467,1448387044183126,1448387044184128,1448387044185122
1448387044249207,1448387044250125,1448387044251127,1448387044252122
1448387044315933,1448387044317124,1448387044318132,1448387044319132
1448387044382685,1448387044384120,1448387044385122,1448387044386123
1448387044449424,1448387044450154,1448387044451127,1448387044452089
1448387044516165,1448387044517150,1448387044518105,1448387044519118
1448387044582916,1448387044584125,1448387044585107,1448387044586123
1448387044649657,1448387044651108,1448387044652122,1448387044653122
1448387044716398,1448387044717109,1448387044718107,1448387044719107
1448387044783157,1448387044784161,1448387044785155,1448387044786156
1448387044849898,1448387044851157,1448387044852137,1448387044853155
1448387044916636,1448387044918133,1448387044919162,1448387044920132
1448387044983376,1448387044984189,1448387044985137,1448387044986159
1448387045050101,1448387045051144,1448387045052147,1448387045053132
1448387045116823,1448387045118137,1448387045119103,1448387045120136
1448387045183559,1448387045185134,1448387045186137,1448387045187142
1448387045250297,1448387045251172,1448387045252137,1448387045253167
1448387045317035,1448387045318150,1448387045319144,1448387045320121
1448387045383776,1448387045385131,1448387045386159,1448387045387147
1448387045450513,1448387045451136,1448387045452140,1448387045453108
1448387045517255,1448387045518134,1448387045519135,1448387045520106
1448387045584006,1448387045585163,1448387045586156,1448387045587150
1448387045650748,1448387045652112,1448387045653159,1448387045654155
1448387045717489,1448387045718173,1448387045719150,1448387045720162
1448387045784231,1448387045785153,1448387045786161,1448387045787155
1448387045850972,1448387045852157,1448387045853155,1448387045854155
1448387045917714,1448387045919121,1448387045920162,1448387045921122
1448387045984455,1448387045985139,1448387045986167,1448387045987146
1448387046051176,1448387046052133,1448387046053125,1448387046054122
1448387046117916,1448387046119167,1448387046120160,1448387046121123
1448387046184666,1448387046186125,1448387046187160,1448387046188154
1448387046251403,1448387046252138,1448387046253132,1448387046254164
1448387046318138,1448387046319119,1448387046320137,1448387046321113
1448387046384879,1448387046386134,1448387046387126,1448387046388133
1448387046451620,1448387046452124,1448387046453150,1448387046454123
1448387046518363,1448387046519107,1448387046520113,1448387046521094
1448387046585106,1448387046586161,1448387046587122,1448387046588122
1448387046651844,1448387046653162,1448387046654154,1448387046655149
1448387046718586,1448387046719156,1448387046720149,1448387046721145
1448387046785327,1448387046786162,1448387046787159,1448387046788155
1448387046852082,1448387046853156,1448387046854161,1448387046855149
1448387046918823,1448387046920169,1448387046921124,1448387046922166
1448387046985565,1448387046986161,1448387046987144,1448387046988148
1448387047052306,1448387047053170,1448387047054141,1448387047055152
1448387047119046,1448387047120129,1448387047121140,1448387047122170
1448387047185788,1448387047187151,1448387047188158,1448387047189152
1448387047252529,1448387047253152,1448387047254167,1448387047255154
1448387047319270,1448387047320156,1448387047321135,1448387047322166
1448387047386012,1448387047387155,1448387047388154,1448387047389158
1448387047452753,1448387047454144,1448387047455139,1448387047456158
1448387047519493,1448387047520135,1448387047521153,1448387047522141
1448387047586233,1448387047587192,1448387047588150,1448387047589144
1448387047652975,1448387047654160,1448387047655149,1448387047656158
1448387047719716,1448387047721143,1448387047722140,1448387047723124
1448387047786459,1448387047787161,1448387047788145,1448387047789154
1448387047853199,1448387047854157,1448387047855149,1448387047856122
1448387047919939,1448387047921173,1448387047922130,1448387047923160
1448387047986677,1448387047988143,1448387047989145,1448387047990145
1448387048053400,1448387048054122,1448387048055133,1448387048056129
1448387048120154,1448387048121134,1448387048122141,1448387048123133
1448387048186878,1448387048188135,1448387048189123,1448387048190127
1448387048253603,1448387048254117,1448387048255126,1448387048256096
1448387048320341,1448387048321138,1448387048322144,1448387048323128
1448387048387078,1448387048388137,1448387048389154,1448387048390134
1448387048453817,1448387048455136,1448387048456131,1448387048457153
1448387048520557,1448387048521135,1448387048522137,1448387048523144
1448387048587294,1448387048588143,1448387048589136,1448387048590145
1448387048654030,1448387048655134,1448387048656135,1448387048657135
1448387048720770,1448387048722151,1448387048723136,1448387048724165
1448387048787512,1448387048788161,1448387048789154,1448387048790155
1448387048854256,1448387048855160,1448387048856158,1448387048857143
1448387048920996,1448387048922134,1448387048923160,1448387048924145
1448387048987734,1448387048989145,1448387048990154,1448387048991154
1448387049054476,1448387049055165,1448387049056143,1448387049057112
1448387049121214,1448387049122119,1448387049123158,1448387049124124
1448387049187951,1448387049189137,1448387049190154,1448387049191153
1448387049254691,1448387049256128,1448387049257154,1448387049258131
1448387049321442,1448387049322136,1448387049323127,1448387049324137
1448387049388179,1448387049389139,1448387049390136,1448387049391135
1448387049454901,1448387049456160,1448387049457153,1448387049458135
1448387049521637,1448387049523109,1448387049524132,1448387049525126
1448387049588377,1448387049589164,1448387049590154,1448387049591158
1448387049655120,1448387049656181,1448387049657136,1448387049658145
1448387049721861,1448387049723165,1448387049724162,1448387049725160
1448387049788602,1448387049789157,1448387049790190,1448387049791159
1448387049855343,1448387049856156,1448387049857139,1448387049858144
1448387049922093,1448387049923138,1448387049924149,1448387049925144
1448387049988835,1448387049990156,1448387049991153,1448387049992159
1448387050055556,1448387050056126,1448387050057140,1448387050058139
1448387050122298,1448387050123151,1448387050124169,1448387050125138
1448387050189040,1448387050190156,1448387050191157,1448387050192130
1448387050255782,1448387050257152,1448387050258119,1448387050259139
1448387050322523,1448387050323135,1448387050324172,1448387050325130
1448387050389265,1448387050390161,1448387050391144,1448387050392153
1448387050456001,1448387050457137,1448387050458139,1448387050459139
1448387050522738,1448387050524152,1448387050525134,1448387050526151
1448387050589473,1448387050590177,1448387050591139,1448387050592126
1448387050656211,1448387050657136,1448387050658132,1448387050659131
1448387050722949,1448387050724133,1448387050725140,1448387050726150
1448387050789686,1448387050791134,1448387050792127,1448387050793139
1448387050856424,1448387050857136,1448387050858131,1448387050859181
1448387050923161,1448387050924144,1448387050925128,1448387050926115
1448387050989897,1448387050991165,1448387050992143,1448387050993153
1448387051056619,1448387051057131,1448387051058152,1448387051059147
1448387051123355,1448387051124117,1448387051125097,1448387051126135
1448387051190095,1448387051191123,1448387051192143,1448387051193121
1448387051256836,1448387051258123,1448387051259119,1448387051260125
1448387051323574,1448387051324160,1448387051325145,1448387051326163
1448387051390315,1448387051391142,1448387051392173,1448387051393152
1448387051457051,1448387051458149,1448387051459177,1448387051460146
1448387051523789,1448387051525137,1448387051526141,1448387051527154
1448387051590527,1448387051591132,1448387051592142,1448387051593137
1448387051657269,1448387051658123,1448387051659125,1448387051660088
1448387051724020,1448387051725152,1448387051726143,1448387051727131
1448387051790763,1448387051792136,1448387051793147,1448387051794157
1448387051857500,1448387051858154,1448387051859139,1448387051860124
1448387051924237,1448387051925134,1448387051926115,1448387051927130
1448387051990974,1448387051992124,1448387051993133,1448387051994148
1448387052057697,1448387052059142,1448387052060106,1448387052061133
1448387052124434,1448387052125109,1448387052126157,1448387052127119
1448387052191174,1448387052192160,1448387052193143,1448387052194143
1448387052257916,1448387052259122,1448387052260153,1448387052261142
1448387052324652,1448387052326113,1448387052327162,1448387052328152
1448387052391389,1448387052392136,1448387052393147,1448387052394148
1448387052458139,1448387052459138,1448387052460131,1448387052461131
1448387052524875,1448387052526149,1448387052527127,1448387052528152
1448387052591610,1448387052592136,1448387052593138,1448387052594134
1448387052658346,1448387052659154,1448387052660142,1448387052661143
1448387052725096,1448387052726128,1448387052727125,1448387052728120
1448387052791835,1448387052793140,1448387052794138,1448387052795134
1448387052858571,1448387052859150,1448387052860143,1448387052861142
1448387052925322,1448387052926150,1448387052927135,1448387052928161
1448387052992059,1448387052993159,1448387052994152,1448387052995147
1448387053058808,1448387053060128,1448387053061087,1448387053062120
1448387053125547,1448387053126145,1448387053127160,1448387053128120
1448387053192289,1448387053193154,1448387053194143,1448387053195146
1448387053259029,1448387053260152,1448387053261147,1448387053262131
1448387053325771,1448387053327140,1448387053328136,1448387053329162
1448387053392509,1448387053393158,1448387053394156,1448387053395152
1448387053459255,1448387053460150,1448387053461125,1448387053462127
1448387053525995,1448387053527143,1448387053528130,1448387053529116
1448387053592736,1448387053594135,1448387053595147,1448387053596143
1448387053659472,1448387053660154,1448387053661141,1448387053662152
1448387053726214,1448387053727144,1448387053728134,1448387053729124
1448387053792955,1448387053794154,1448387053795142,1448387053796161
1448387053859694,1448387053861121,1448387053862143,1448387053863138
1448387053926436,1448387053927146,1448387053928135,1448387053929130
1448387053993179,1448387053994140,1448387053995142,1448387053996129
1448387054059930,1448387054061128,1448387054062129,1448387054063138
1448387054126672,1448387054128107,1448387054129134,1448387054130132
1448387054193408,1448387054194142,1448387054195139,1448387054196115
1448387054260150,1448387054261116,1448387054262151,1448387054263130
1448387054326886,1448387054328133,1448387054329135,1448387054330143
1448387054393626,1448387054394158,1448387054395152,1448387054396138
1448387054460362,1448387054461107,1448387054462128,1448387054463147
1448387054527099,1448387054528128,1448387054529144,1448387054530160
1448387054593841,1448387054595140,1448387054596170,1448387054597156
1448387054660577,1448387054661129,1448387054662129,1448387054663137
1448387054727320,1448387054728116,1448387054729148,1448387054730132
1448387054794044,1448387054795124,1448387054796129,1448387054797124
1448387054860768,1448387054862127,1448387054863121,1448387054864116
1448387054927492,1448387054928150,1448387054929116,1448387054930101
1448387054994214,1448387054995131,1448387054996123,1448387054997145
1448387055060937,1448387055062197,1448387055063122,1448387055064109
1448387055127663,1448387055129112,1448387055130131,1448387055131112
1448387055194387,1448387055195132,1448387055196125,1448387055197125
1448387055261111,1448387055262124,1448387055263117,1448387055264120
1448387055327834,1448387055329115,1448387055330115,1448387055331118
1448387055394571,1448387055395132,1448387055396126,1448387055397120
1448387055461298,1448387055462154,1448387055463116,1448387055464095
1448387055528051,1448387055529144,1448387055530137,1448387055531134
1448387055594789,1448387055596146,1448387055597143,1448387055598151
1448387055661530,1448387055662090,1448387055663122,1448387055664180
1448387055728253,1448387055729171,1448387055730135,1448387055731148
1448387055794994,1448387055796143,1448387055797146,1448387055798176
1448387055861735,1448387055863135,1448387055864151,1448387055865116
1448387055928457,1448387055929150,1448387055930142,1448387055931167
1448387055995182,1448387055996154,1448387055997155,1448387055998152
1448387056061918,1448387056063147,1448387056064110,1448387056065093
1448387056128665,1448387056130117,1448387056131135,1448387056132166
1448387056195420,1448387056196125,1448387056197114,1448387056198136
1448387056262141,1448387056263121,1448387056264120,1448387056265120
1448387056328884,1448387056330161,1448387056331158,1448387056332129
1448387056395621,1448387056396150,1448387056397148,1448387056398151
1448387056462358,1448387056463178,1448387056464119,1448387056465104
1448387056529105,1448387056530131,1448387056531182,1448387056532143
1448387056595843,1448387056597136,1448387056598142,1448387056599142
1448387056662580,1448387056663137,1448387056664147,1448387056665128
1448387056729319,1448387056730144,1448387056731139,1448387056732139
1448387056796059,1448387056797154,1448387056798157,1448387056799151
1448387056862796,1448387056864112,1448387056865158,1448387056866150
1448387056929547,1448387056930131,1448387056931182,1448387056932125
1448387056996288,1448387056997157,1448387056998151,1448387056999124
1448387057063026,1448387057064130,1448387057065120,1448387057066121
1448387057129767,1448387057131135,1448387057132112,1448387057133140
1448387057196503,1448387057197127,1448387057198143,1448387057199170
1448387057263244,1448387057264145,1448387057265119,1448387057266120
1448387057329985,1448387057331130,1448387057332170,1448387057333141
1448387057396724,1448387057398141,1448387057399152,1448387057400120
1448387057463462,1448387057464138,1448387057465107,1448387057466133
1448387057530203,1448387057531118,1448387057532134,1448387057533112
1448387057596942,1448387057598127,1448387057599115,1448387057600071
1448387057663677,1448387057665081,1448387057666117,1448387057667117
1448387057730413,1448387057731137,1448387057732112,1448387057733126
1448387057797139,1448387057798132,1448387057799118,1448387057800120
1448387057863881,1448387057865152,1448387057866155,1448387057867160
1448387057930618,1448387057931165,1448387057932142,1448387057933123
1448387057997355,1448387057998139,1448387057999151,1448387058000176
1448387058064077,1448387058065118,1448387058066121,1448387058067114
1448387058130813,1448387058132133,1448387058133127,1448387058134109
1448387058197553,1448387058198156,1448387058199141,1448387058200141
1448387058264300,1448387058265145,1448387058266151,1448387058267136
1448387058331051,1448387058332168,1448387058333150,1448387058334166
1448387058397799,1448387058399143,1448387058400128,1448387058401139
1448387058464539,1448387058465161,1448387058466174,1448387058467145
1448387058531277,1448387058532155,1448387058533118,1448387058534190
1448387058598014,1448387058599158,1448387058600149,1448387058601149
1448387058664750,1448387058666135,1448387058667118,1448387058668146
1448387058731491,1448387058732145,1448387058733150,1448387058734159
1448387058798233,1448387058799152,1448387058800138,1448387058801140
1448387058864975,1448387058866156,1448387058867155,1448387058868153
1448387058931711,1448387058933128,1448387058934144,1448387058935149
1448387058998453,1448387058999129,1448387059000122,1448387059001143
1448387059065174,1448387059066124,1448387059067117,1448387059068115
1448387059131910,1448387059133161,1448387059134155,1448387059135155
1448387059198651,1448387059200135,1448387059201136,1448387059202140
1448387059265388,1448387059266121,1448387059267117,1448387059268122
1448387059332130,1448387059333146,1448387059334135,1448387059335139
1448387059398870,1448387059400150,1448387059401151,1448387059402141
1448387059465612,1448387059466152,1448387059467146,1448387059468131
1448387059532354,1448387059533161,1448387059534139,1448387059535135
1448387059599092,1448387059600127,1448387059601150,1448387059602155
1448387059665833,1448387059667131,1448387059668145,1448387059669149
1448387059732572,1448387059733132,1448387059734118,1448387059735150
1448387059799313,1448387059800136,1448387059801119,1448387059802133
1448387059866054,1448387059867124,1448387059868120,1448387059869117
1448387059932793,1448387059934124,1448387059935125,1448387059936140
1448387059999531,1448387060000158,1448387060001123,1448387060002139
1448387060066255,1448387060067122,1448387060068119,1448387060069128
1448387060132979,1448387060134120,1448387060135100,1448387060136117
1448387060199704,1448387060201115,1448387060202123,1448387060203113
1448387060266426,1448387060267127,1448387060268130,1448387060269113
1448387060333151,1448387060334115,1448387060335111,1448387060336112
